{
	"code": 0,
	"data": {
		"content": [
			{
				"active": 0,
				"address": "北京科技大学5斋北京市海淀区",
				"approveStatus": 0,
				"box": 1,
				"commentCount": 0,
				"created": "2016-07-12 16:32:34",
				"deleted": 0,
				"deposit": 1500,
				"description": "dr.dre限量版",
				"favor": false,
				"favors": 2,
				"id": 294,
				"images": [
					{
						"created": 1468312354000,
						"height": 1424,
						"id": 91,
						"origin": "/store/origin/2016/0712/12163234f3c3.jpg",
						"preview": "/store/thumbs/2016/0712/12163234yq26.jpg",
						"targetId": 294,
						"width": 2144
					}, {
						"created": 1468312354000,
						"height": 1424,
						"id": 92,
						"origin": "/store/origin/2016/0712/12163234dotc.jpg",
						"preview": "/store/thumbs/2016/0712/121632346ixk.jpg",
						"targetId": 294,
						"width": 2144
					}
				],
				"keyList": [],
				"lat": 39.994,
				"leaseCount": 0,
				"lendMode": 0,
				"lon": 116.368,
				"name": "Beats Studio",
				"price": 5,
				"priceMode": 2,
				"quantity": 1,
				"remain": 1,
				"status": 0,
				"tags": [
					{
						"created": "2016-05-10 11:36:24",
						"grayIcon": "/store/thumbs/2016/0511/111126122esb.png",
						"icon": "/store/thumbs/2016/0511/11112612run5.png",
						"id": 2,
						"name": "精致生活"
					}, {
						"created": "2016-05-10 11:37:23",
						"grayIcon": "/store/thumbs/2016/0511/111124215k4v.png",
						"icon": "/store/thumbs/2016/0511/11112421lugt.png",
						"id": 9,
						"name": "电子数码"
					}
				],
				"user": {
					"avatar": "/store/ava/73/0/0/0.jpg?t=1487994964000",
					"avatar80": "/store/ava/73/0/0/80.jpg?t=1487994964000",
					"birthday": "1994-03-12",
					"borrowScale": 60,
					"borrowScaleAVG": 5,
					"borrowTimes": 12,
					"city": "北京市 海淀区",
					"cityId": 0,
					"created": "2016-07-09 13:54:37",
					"gender": 1,
					"id": 73,
					"invite": 0,
					"lat": 0,
					"lendScale": 30,
					"lendScaleAVG": 5,
					"lendTimes": 6,
					"lon": 0,
					"mobile": "18811771845",
					"nickname": "Bruce",
					"platform": 0,
					"schoolName": "北京科技大学",
					"signature": "活鱼逆流而上，死鱼随波逐流。",
					"status": 0,
					"studentStatus": 1,
					"updated": "2017-02-25 11:56:04",
					"zhimaDate": "2016-12-03",
					"zhimaStatus": 1
				},
				"weight": 0
			}, {
				"active": 0,
				"address": "龙博苑一区\n中国北京市昌平区黄平路",
				"approveStatus": 0,
				"box": 1,
				"commentCount": 0,
				"created": "2016-07-13 23:44:30",
				"deleted": 0,
				"deposit": 1000,
				"description": "618赶得耳机2333333",
				"favor": false,
				"favors": 0,
				"id": 334,
				"images": [
					{
						"created": 1468424670000,
						"height": 378,
						"id": 173,
						"origin": "/store/origin/2016/0713/13234430bw6g.jpg",
						"preview": "/store/thumbs/2016/0713/13234430bj4e.jpg",
						"targetId": 334,
						"width": 504
					}
				],
				"keyList": [],
				"lat": 40.0756,
				"leaseCount": 0,
				"lendMode": 0,
				"lon": 116.342,
				"name": "power beats studio",
				"price": 5,
				"priceMode": 2,
				"quantity": 1,
				"remain": 1,
				"status": 0,
				"tags": [
					{
						"created": "2016-05-10 11:37:23",
						"grayIcon": "/store/thumbs/2016/0511/111124215k4v.png",
						"icon": "/store/thumbs/2016/0511/11112421lugt.png",
						"id": 9,
						"name": "电子数码"
					}
				],
				"user": {
					"avatar": "/store/ava/172/0/0/0.jpg?t=1468424475000",
					"avatar80": "/store/ava/172/0/0/80.jpg?t=1468424475000",
					"birthday": "1990-01-01",
					"borrowScale": 0,
					"borrowScaleAVG": 5,
					"borrowTimes": 0,
					"city": "",
					"cityId": 0,
					"created": "2016-07-13 23:41:15",
					"gender": 1,
					"id": 172,
					"invite": 0,
					"lat": 0,
					"lendScale": 0,
					"lendScaleAVG": 5,
					"lendTimes": 0,
					"lon": 0,
					"mobile": "15601336809",
					"nickname": "王利邦",
					"platform": 0,
					"signature": "",
					"status": 0,
					"studentStatus": 0,
					"updated": "2016-07-13 23:41:15",
					"zhimaStatus": 0
				},
				"weight": 0
			}, {
				"active": 0,
				"address": "龙博苑一区\n中国北京市昌平区黄平路",
				"approveStatus": 0,
				"box": 1,
				"commentCount": 0,
				"created": "2016-07-13 23:51:25",
				"deleted": 0,
				"deposit": 1000,
				"description": "去年美国买的2333333",
				"favor": false,
				"favors": 0,
				"id": 336,
				"images": [
					{
						"created": 1468425085000,
						"height": 378,
						"id": 175,
						"origin": "/store/origin/2016/0713/13235125i20w.jpg",
						"preview": "/store/thumbs/2016/0713/13235125wws9.jpg",
						"targetId": 336,
						"width": 504
					}
				],
				"keyList": [],
				"lat": 40.0756,
				"leaseCount": 0,
				"lendMode": 0,
				"lon": 116.342,
				"name": "powerbeats耳戴",
				"price": 5,
				"priceMode": 2,
				"quantity": 1,
				"remain": 1,
				"status": 0,
				"tags": [
					{
						"created": "2016-05-10 11:37:23",
						"grayIcon": "/store/thumbs/2016/0511/111124215k4v.png",
						"icon": "/store/thumbs/2016/0511/11112421lugt.png",
						"id": 9,
						"name": "电子数码"
					}
				],
				"user": {
					"avatar": "/store/ava/172/0/0/0.jpg?t=1468424475000",
					"avatar80": "/store/ava/172/0/0/80.jpg?t=1468424475000",
					"birthday": "1990-01-01",
					"borrowScale": 0,
					"borrowScaleAVG": 5,
					"borrowTimes": 0,
					"city": "",
					"cityId": 0,
					"created": "2016-07-13 23:41:15",
					"gender": 1,
					"id": 172,
					"invite": 0,
					"lat": 0,
					"lendScale": 0,
					"lendScaleAVG": 5,
					"lendTimes": 0,
					"lon": 0,
					"mobile": "15601336809",
					"nickname": "王利邦",
					"platform": 0,
					"signature": "",
					"status": 0,
					"studentStatus": 0,
					"updated": "2016-07-13 23:41:15",
					"zhimaStatus": 0
				},
				"weight": 0
			}, {
				"active": 0,
				"address": "北京市北京科技大学六斋",
				"approveStatus": 0,
				"box": 1,
				"commentCount": 0,
				"created": "2016-07-14 14:16:11",
				"deleted": 0,
				"deposit": 0,
				"description": "“他说六扇门里太龌龊，不如六根弦上取磊落。”",
				"favor": false,
				"favors": 2,
				"id": 349,
				"images": [
					{
						"created": 1468476971000,
						"height": 4000,
						"id": 191,
						"origin": "/store/origin/2016/0714/14141611e0t4.jpg",
						"preview": "/store/thumbs/2016/0714/14141611eqka.jpg",
						"targetId": 349,
						"width": 6000
					}, {
						"created": 1480736183000,
						"height": 333,
						"id": 4261,
						"origin": "/store/origin/2016/1203/03113622amd5.jpg",
						"preview": "/store/thumbs/2016/1203/03113622499c.jpg",
						"targetId": 349,
						"width": 500
					}, {
						"created": 1488540466000,
						"height": 333,
						"id": 5815,
						"origin": "/store/origin/2017/0303/03192746ouy4.jpg",
						"preview": "/store/thumbs/2017/0303/03192746aopa.jpg",
						"targetId": 349,
						"width": 500
					}, {
						"created": 1488540466000,
						"height": 333,
						"id": 5816,
						"origin": "/store/origin/2017/0303/031927465i3n.jpg",
						"preview": "/store/thumbs/2017/0303/03192746sa1t.jpg",
						"targetId": 349,
						"width": 500
					}
				],
				"keyList": [],
				"lat": 39.9885,
				"leaseCount": 1,
				"lendMode": 1,
				"lon": 116.35,
				"name": "专辑｜《安和桥北》",
				"price": 0,
				"priceMode": 2,
				"quantity": 1,
				"remain": 1,
				"status": 0,
				"tags": [
					{
						"created": "2016-05-10 11:36:24",
						"grayIcon": "/store/thumbs/2016/0511/111126122esb.png",
						"icon": "/store/thumbs/2016/0511/11112612run5.png",
						"id": 2,
						"name": "精致生活"
					}
				],
				"user": {
					"avatar": "/store/ava/67/0/0/0.jpg?t=1488635991000",
					"avatar80": "/store/ava/67/0/0/80.jpg?t=1488635991000",
					"birthday": "1996-04-22",
					"borrowScale": 169.667,
					"borrowScaleAVG": 5,
					"borrowTimes": 34,
					"city": "",
					"cityId": 0,
					"created": "2016-07-09 12:19:44",
					"gender": 1,
					"id": 67,
					"invite": 0,
					"lat": 0,
					"lendScale": 5,
					"lendScaleAVG": 5,
					"lendTimes": 1,
					"lon": 0,
					"mobile": "18810999238",
					"nickname": "子衿",
					"platform": 0,
					"schoolName": "北京科技大学",
					"signature": "？",
					"status": 0,
					"studentStatus": 1,
					"updated": "2017-03-04 21:59:51",
					"zhimaDate": "2016-12-05",
					"zhimaStatus": 1
				},
				"weight": 0
			}, {
				"active": 0,
				"address": "(null)北京科技大学六斋",
				"approveStatus": 0,
				"box": 1,
				"commentCount": 0,
				"created": "2016-07-14 16:28:40",
				"deleted": 0,
				"deposit": 0,
				"description": "号上可体验：守望先锋、dota24300分、炉石传说海量卡组都可以体验",
				"favor": false,
				"favors": 3,
				"id": 356,
				"images": [
					{
						"created": 1468484920000,
						"height": 326,
						"id": 210,
						"origin": "/store/origin/2016/0714/14162839d2x8.jpg",
						"preview": "/store/thumbs/2016/0714/141628396c00.jpg",
						"targetId": 356,
						"width": 580
					}, {
						"created": 1468484920000,
						"height": 678,
						"id": 211,
						"origin": "/store/origin/2016/0714/141628391b3z.jpg",
						"preview": "/store/thumbs/2016/0714/14162839ns03.jpg",
						"targetId": 356,
						"width": 480
					}, {
						"created": 1468484920000,
						"height": 768,
						"id": 212,
						"origin": "/store/origin/2016/0714/1416283936lp.jpg",
						"preview": "/store/thumbs/2016/0714/141628398765.jpg",
						"targetId": 356,
						"width": 532
					}
				],
				"keyList": [],
				"lat": 39.9859,
				"leaseCount": 0,
				"lendMode": 1,
				"lon": 116.351,
				"name": "守望先锋",
				"price": 1,
				"priceMode": 2,
				"quantity": 1,
				"remain": 1,
				"status": 0,
				"tags": [
					{
						"created": "2016-05-10 11:36:31",
						"grayIcon": "/store/thumbs/2016/0511/11112600ewl7.png",
						"icon": "/store/thumbs/2016/0511/11112600h3yy.png",
						"id": 3,
						"name": "休闲游戏"
					}, {
						"created": "2016-05-10 11:37:23",
						"grayIcon": "/store/thumbs/2016/0511/111124215k4v.png",
						"icon": "/store/thumbs/2016/0511/11112421lugt.png",
						"id": 9,
						"name": "电子数码"
					}, {
						"created": "2016-05-10 11:37:31",
						"grayIcon": "/store/thumbs/2016/0511/11112350eib4.png",
						"icon": "/store/thumbs/2016/0511/11112350q0hs.png",
						"id": 10,
						"name": "卡类会员"
					}
				],
				"user": {
					"avatar": "/store/ava/70/0/0/0.jpg?t=1486381543000",
					"avatar80": "/store/ava/70/0/0/80.jpg?t=1486381543000",
					"birthday": "2016-07-23",
					"borrowScale": 45,
					"borrowScaleAVG": 5,
					"borrowTimes": 9,
					"city": "",
					"cityId": 0,
					"created": "2016-07-09 12:34:07",
					"gender": 1,
					"id": 70,
					"invite": 0,
					"lat": 0,
					"lendScale": 0,
					"lendScaleAVG": 5,
					"lendTimes": 0,
					"lon": 0,
					"mobile": "15723269203",
					"nickname": "MJ",
					"platform": 0,
					"schoolName": "北京科技大学",
					"signature": "",
					"status": 0,
					"studentStatus": 1,
					"updated": "2017-02-06 19:45:43",
					"zhimaStatus": 0
				},
				"weight": 0
			}, {
				"active": 0,
				"address": "北京市飞young盟认证加盟店北京科技大学校园体验店",
				"approveStatus": 0,
				"box": 1,
				"commentCount": 0,
				"created": "2016-07-15 00:06:22",
				"deleted": 0,
				"deposit": 1000,
				"description": "玫瑰金 蓝牙耳机也可接线 十成新",
				"favor": false,
				"favors": 1,
				"id": 390,
				"images": [
					{
						"created": 1468512382000,
						"height": 1012,
						"id": 281,
						"origin": "/store/origin/2016/0715/150006222jrm.jpg",
						"preview": "/store/thumbs/2016/0715/150006220bpx.jpg",
						"targetId": 390,
						"width": 1350
					}
				],
				"keyList": [],
				"lat": 39.987,
				"leaseCount": 0,
				"lendMode": 0,
				"lon": 116.354,
				"name": "Beats Solo2 Wireless",
				"price": 10,
				"priceMode": 2,
				"quantity": 1,
				"remain": 1,
				"status": 0,
				"tags": [
					{
						"created": "2016-05-10 11:36:24",
						"grayIcon": "/store/thumbs/2016/0511/111126122esb.png",
						"icon": "/store/thumbs/2016/0511/11112612run5.png",
						"id": 2,
						"name": "精致生活"
					}, {
						"created": "2016-05-10 11:37:23",
						"grayIcon": "/store/thumbs/2016/0511/111124215k4v.png",
						"icon": "/store/thumbs/2016/0511/11112421lugt.png",
						"id": 9,
						"name": "电子数码"
					}
				],
				"user": {
					"avatar": "/store/ava/198/0/0/0.jpg?t=1468493147000",
					"avatar80": "/store/ava/198/0/0/80.jpg?t=1468493147000",
					"birthday": "1990-01-01",
					"borrowScale": 0,
					"borrowScaleAVG": 5,
					"borrowTimes": 0,
					"city": "",
					"cityId": 0,
					"created": "2016-07-14 18:45:47",
					"gender": 2,
					"id": 198,
					"invite": 0,
					"lat": 0,
					"lendScale": 0,
					"lendScaleAVG": 5,
					"lendTimes": 0,
					"lon": 0,
					"mobile": "18701280323",
					"nickname": "四叶草",
					"platform": 0,
					"signature": "",
					"status": 0,
					"studentStatus": 0,
					"updated": "2016-07-14 18:45:47",
					"zhimaStatus": 0
				},
				"weight": 0
			}
		],
		"first": true,
		"last": false,
		"number": 0,
		"numberOfElements": 6,
		"size": 6,
		"totalElements": 173,
		"totalPages": 29
	},
	"message": "操作成功"
}