{
	"code": 0,
	"data": {
		"content": [
			{
				"active": 0,
				"address": "金杨新村街道高庙城中村中国上海市浦东新区金桥路338号",
				"approveStatus": 0,
				"box": 1,
				"commentCount": 0,
				"created": "2016-12-06 23:58:17",
				"deleted": 0,
				"deposit": 5000,
				"description": "请遵守国家相关法律法规，远离人群集中地区，远离国家相关机构、军事机构所在地，远离电网。请勿非法拍摄以及违禁品运输；请爱护飞行器，按照正常飞行步骤操作，如有损坏请支付维修费用。单电，两天起租，外地请付邮费",
				"favor": false,
				"favors": 4,
				"id": 2475,
				"images": [
					{
						"created": 1481039897000,
						"height": 612,
						"id": 4379,
						"origin": "/store/origin/2016/1206/06235817kpla.jpg",
						"preview": "/store/thumbs/2016/1206/06235817ijjs.jpg",
						"targetId": 2475,
						"width": 816
					}, {
						"created": 1481039897000,
						"height": 612,
						"id": 4380,
						"origin": "/store/origin/2016/1206/06235817nn0t.jpg",
						"preview": "/store/thumbs/2016/1206/06235817s9ec.jpg",
						"targetId": 2475,
						"width": 816
					}
				],
				"keyList": [
					"无人机"
				],
				"lat": 31.2702,
				"leaseCount": 0,
				"lendMode": 1,
				"lon": 121.578,
				"name": "大疆精灵3（本地两天起租，外地一周起租）",
				"price": 75,
				"priceMode": 2,
				"quantity": 1,
				"remain": 1,
				"searchKey": "无人机",
				"status": 0,
				"tags": [
					{
						"created": "2016-05-10 11:36:08",
						"grayIcon": "/store/thumbs/2016/0511/111126254hnv.png",
						"icon": "/store/thumbs/2016/0511/111126259sf5.png",
						"id": 1,
						"name": "运动健身"
					}, {
						"created": "2016-05-10 11:36:31",
						"grayIcon": "/store/thumbs/2016/0511/11112600ewl7.png",
						"icon": "/store/thumbs/2016/0511/11112600h3yy.png",
						"id": 3,
						"name": "休闲游戏"
					}, {
						"created": "2016-05-10 11:37:23",
						"grayIcon": "/store/thumbs/2016/0511/111124215k4v.png",
						"icon": "/store/thumbs/2016/0511/11112421lugt.png",
						"id": 9,
						"name": "电子数码"
					}
				],
				"user": {
					"avatar": "/store/ava/420/4/0/0.jpg?t=1480987181000",
					"avatar80": "/store/ava/420/4/0/80.jpg?t=1480987181000",
					"birthday": "1990-01-01",
					"borrowScale": 0,
					"borrowScaleAVG": 5,
					"borrowTimes": 0,
					"city": "",
					"cityId": 0,
					"created": "2016-12-06 09:19:41",
					"gender": 1,
					"id": 4408,
					"invite": 0,
					"lat": 0,
					"lendScale": 0,
					"lendScaleAVG": 5,
					"lendTimes": 0,
					"lon": 0,
					"mobile": "13052035082",
					"nickname": "金江韵味苏廷兴|房产*特产*保健",
					"platform": 0,
					"signature": "",
					"status": 0,
					"studentStatus": 0,
					"updated": "2016-12-06 09:19:41",
					"zhimaStatus": 0
				},
				"weight": 0
			}, {
				"active": 0,
				"address": "(null)",
				"approveStatus": 0,
				"box": 1,
				"commentCount": 0,
				"created": "2016-12-21 18:53:22",
				"deleted": 0,
				"deposit": 12000,
				"description": "全新无人机对外出租",
				"favor": false,
				"favors": 0,
				"id": 2563,
				"images": [
					{
						"created": 1482317602000,
						"height": 190,
						"id": 4666,
						"origin": "/store/origin/2016/1221/21185322qx9g.jpg",
						"preview": "/store/thumbs/2016/1221/211853226os6.jpg",
						"targetId": 2563,
						"width": 191
					}, {
						"created": 1482317602000,
						"height": 974,
						"id": 4667,
						"origin": "/store/origin/2016/1221/21185322seap.jpg",
						"preview": "/store/thumbs/2016/1221/21185322scf3.jpg",
						"targetId": 2563,
						"width": 752
					}, {
						"created": 1482317602000,
						"height": 960,
						"id": 4668,
						"origin": "/store/origin/2016/1221/21185322v9xu.jpg",
						"preview": "/store/thumbs/2016/1221/21185322zod3.jpg",
						"targetId": 2563,
						"width": 1280
					}, {
						"created": 1482317602000,
						"height": 960,
						"id": 4669,
						"origin": "/store/origin/2016/1221/21185322ag6l.jpg",
						"preview": "/store/thumbs/2016/1221/21185322febw.jpg",
						"targetId": 2563,
						"width": 1280
					}, {
						"created": 1482317602000,
						"height": 960,
						"id": 4670,
						"origin": "/store/origin/2016/1221/21185322h487.jpg",
						"preview": "/store/thumbs/2016/1221/21185322aplq.jpg",
						"targetId": 2563,
						"width": 1280
					}
				],
				"keyList": [
					"无人机"
				],
				"lat": 0,
				"leaseCount": 0,
				"lendMode": 0,
				"lon": 0,
				"name": "大疆无人机悟1出租",
				"price": 350,
				"priceMode": 2,
				"quantity": 10,
				"remain": 10,
				"searchKey": "无人机",
				"status": 0,
				"tags": [
					{
						"created": "2016-05-10 11:36:24",
						"grayIcon": "/store/thumbs/2016/0511/111126122esb.png",
						"icon": "/store/thumbs/2016/0511/11112612run5.png",
						"id": 2,
						"name": "精致生活"
					}, {
						"created": "2016-05-10 11:36:39",
						"grayIcon": "/store/thumbs/2016/0511/111125463b1y.png",
						"icon": "/store/thumbs/2016/0511/11112546oqzr.png",
						"id": 4,
						"name": "户外远足"
					}, {
						"created": "2016-05-10 11:37:23",
						"grayIcon": "/store/thumbs/2016/0511/111124215k4v.png",
						"icon": "/store/thumbs/2016/0511/11112421lugt.png",
						"id": 9,
						"name": "电子数码"
					}
				],
				"user": {
					"avatar": "/store/ava/823/4/0/0.jpg?t=1482317774000",
					"avatar80": "/store/ava/823/4/0/80.jpg?t=1482317774000",
					"birthday": "1990-01-01",
					"borrowScale": 0,
					"borrowScaleAVG": 5,
					"borrowTimes": 0,
					"city": "",
					"cityId": 0,
					"created": "2016-12-21 18:50:00",
					"gender": 1,
					"id": 4811,
					"invite": 0,
					"lat": 0,
					"lendScale": 0,
					"lendScaleAVG": 5,
					"lendTimes": 0,
					"lon": 0,
					"mobile": "15984081645",
					"nickname": "四川鹰眼航拍科技有限公司",
					"platform": 0,
					"signature": "四川鹰眼航拍科技有限公司\n电话15985081645",
					"status": 0,
					"studentStatus": 0,
					"updated": "2016-12-21 18:56:14",
					"zhimaDate": "2016-12-21",
					"zhimaStatus": 1
				},
				"weight": 0
			}, {
				"active": 0,
				"address": "北京航空航天大学\n中国北京市海淀区知春路29号院-6号楼",
				"approveStatus": 0,
				"box": 1,
				"commentCount": 0,
				"created": "2017-02-12 11:32:44",
				"deleted": 0,
				"deposit": 0,
				"description": "大疆精灵3s，三电",
				"favor": false,
				"favors": 2,
				"id": 2729,
				"images": [
					{
						"created": 1486870364000,
						"height": 1184,
						"id": 5505,
						"origin": "/store/origin/2017/0212/12113244k511.jpg",
						"preview": "/store/thumbs/2017/0212/121132445w5l.jpg",
						"targetId": 2729,
						"width": 2104
					}
				],
				"keyList": [
					"无人机"
				],
				"lat": 39.9839,
				"leaseCount": 1,
				"lendMode": 2,
				"lon": 116.349,
				"name": "大疆精灵3s",
				"price": 100,
				"priceMode": 2,
				"quantity": 1,
				"remain": 1,
				"searchKey": "无人机",
				"status": 0,
				"tags": [
					{
						"created": "2016-05-10 11:36:24",
						"grayIcon": "/store/thumbs/2016/0511/111126122esb.png",
						"icon": "/store/thumbs/2016/0511/11112612run5.png",
						"id": 2,
						"name": "精致生活"
					}, {
						"created": "2016-05-10 11:36:39",
						"grayIcon": "/store/thumbs/2016/0511/111125463b1y.png",
						"icon": "/store/thumbs/2016/0511/11112546oqzr.png",
						"id": 4,
						"name": "户外远足"
					}, {
						"created": "2016-05-10 11:37:23",
						"grayIcon": "/store/thumbs/2016/0511/111124215k4v.png",
						"icon": "/store/thumbs/2016/0511/11112421lugt.png",
						"id": 9,
						"name": "电子数码"
					}
				],
				"user": {
					"avatar": "/dist/images/ava/default.png?t=1483782619000",
					"avatar80": "/dist/images/ava/default.png?t=1483782619000",
					"birthday": "1990-01-01",
					"borrowScale": 5,
					"borrowScaleAVG": 5,
					"borrowTimes": 1,
					"city": "",
					"cityId": 0,
					"created": "2017-01-07 17:50:19",
					"gender": 1,
					"id": 6727,
					"invite": 0,
					"lat": 0,
					"lendScale": 0,
					"lendScaleAVG": 5,
					"lendTimes": 0,
					"lon": 0,
					"mobile": "15589699997",
					"nickname": "yz",
					"platform": 0,
					"signature": "",
					"status": 0,
					"studentStatus": 0,
					"updated": "2017-01-07 17:50:19",
					"zhimaStatus": 0
				},
				"weight": 0
			}, {
				"active": 0,
				"address": "北京科技大学5斋北京市海淀区",
				"approveStatus": 0,
				"box": 1,
				"commentCount": 0,
				"created": "2016-07-13 13:47:14",
				"deleted": 0,
				"deposit": 30,
				"description": "更酷地看3d电影",
				"favor": false,
				"favors": 0,
				"id": 313,
				"images": [
					{
						"created": 1468388834000,
						"height": 800,
						"id": 129,
						"origin": "/store/origin/2016/0713/13134713ducz.jpg",
						"preview": "/store/thumbs/2016/0713/13134713lyrs.jpg",
						"targetId": 313,
						"width": 800
					}, {
						"created": 1468388834000,
						"height": 1136,
						"id": 130,
						"origin": "/store/origin/2016/0713/13134713y6gi.jpg",
						"preview": "/store/thumbs/2016/0713/13134713efn1.jpg",
						"targetId": 313,
						"width": 683
					}, {
						"created": 1468388834000,
						"height": 524,
						"id": 131,
						"origin": "/store/origin/2016/0713/131347137vw1.jpg",
						"preview": "/store/thumbs/2016/0713/13134713qbhd.jpg",
						"targetId": 313,
						"width": 375
					}
				],
				"keyList": [],
				"lat": 39.994,
				"leaseCount": 0,
				"lendMode": 0,
				"lon": 116.368,
				"name": "魔兽 3D眼镜 人族",
				"price": 2,
				"priceMode": 2,
				"quantity": 1,
				"remain": 1,
				"status": 0,
				"tags": [
					{
						"created": "2016-05-10 11:36:31",
						"grayIcon": "/store/thumbs/2016/0511/11112600ewl7.png",
						"icon": "/store/thumbs/2016/0511/11112600h3yy.png",
						"id": 3,
						"name": "休闲游戏"
					}
				],
				"user": {
					"avatar": "/store/ava/73/0/0/0.jpg?t=1487994964000",
					"avatar80": "/store/ava/73/0/0/80.jpg?t=1487994964000",
					"birthday": "1994-03-12",
					"borrowScale": 60,
					"borrowScaleAVG": 5,
					"borrowTimes": 12,
					"city": "北京市 海淀区",
					"cityId": 0,
					"created": "2016-07-09 13:54:37",
					"gender": 1,
					"id": 73,
					"invite": 0,
					"lat": 0,
					"lendScale": 30,
					"lendScaleAVG": 5,
					"lendTimes": 6,
					"lon": 0,
					"mobile": "18811771845",
					"nickname": "Bruce",
					"platform": 0,
					"schoolName": "北京科技大学",
					"signature": "活鱼逆流而上，死鱼随波逐流。",
					"status": 0,
					"studentStatus": 1,
					"updated": "2017-02-25 11:56:04",
					"zhimaDate": "2016-12-03",
					"zhimaStatus": 1
				},
				"weight": 0
			}, {
				"active": 0,
				"address": "凯达苑\n中国上海市杨浦区江浦路145号",
				"approveStatus": 0,
				"box": 1,
				"commentCount": 0,
				"created": "2017-03-22 06:22:59",
				"deleted": 0,
				"deposit": 999,
				"description": "20元一天，2天起借，上海可以杨浦区，虹口的可以免费送上门",
				"favor": false,
				"favors": 0,
				"id": 2900,
				"images": [
					{
						"created": 1490134979000,
						"height": 375,
						"id": 6291,
						"origin": "/store/origin/2017/0322/220622591m22.jpg",
						"preview": "/store/thumbs/2017/0322/22062259nam3.jpg",
						"targetId": 2900,
						"width": 500
					}, {
						"created": 1490134979000,
						"height": 590,
						"id": 6292,
						"origin": "/store/origin/2017/0322/22062259m4k7.jpg",
						"preview": "/store/thumbs/2017/0322/22062259mihw.jpg",
						"targetId": 2900,
						"width": 480
					}, {
						"created": 1490305111000,
						"height": 375,
						"id": 6402,
						"origin": "/store/origin/2017/0324/240538313ff1.jpg",
						"preview": "/store/thumbs/2017/0324/24053831ydod.jpg",
						"targetId": 2900,
						"width": 500
					}, {
						"created": 1490305111000,
						"height": 590,
						"id": 6403,
						"origin": "/store/origin/2017/0324/240538315du9.jpg",
						"preview": "/store/thumbs/2017/0324/2405383136nc.jpg",
						"targetId": 2900,
						"width": 480
					}
				],
				"keyList": [],
				"lat": 31.2602,
				"leaseCount": 0,
				"lendMode": 1,
				"lon": 121.538,
				"name": "快轮F0滑板车",
				"price": 20,
				"priceMode": 2,
				"quantity": 1,
				"remain": 1,
				"status": 0,
				"user": {
					"avatar": "/store/ava/221/14/0/0.jpg?t=1490138848000",
					"avatar80": "/store/ava/221/14/0/80.jpg?t=1490138848000",
					"birthday": "1987-01-31",
					"borrowScale": 0,
					"borrowScaleAVG": 5,
					"borrowTimes": 0,
					"city": "",
					"cityId": 0,
					"created": "2017-03-22 06:11:33",
					"gender": 1,
					"id": 14179,
					"invite": 0,
					"lat": 0,
					"lendScale": 0,
					"lendScaleAVG": 5,
					"lendTimes": 0,
					"lon": 0,
					"mobile": "18621661718",
					"nickname": "Tylor",
					"platform": 0,
					"signature": "",
					"status": 0,
					"studentStatus": 0,
					"updated": "2017-03-22 07:27:28",
					"zhimaDate": "2017-03-22",
					"zhimaStatus": 1
				},
				"weight": 0
			}, {
				"active": 0,
				"address": "北京市亿洲创新科技发展公司",
				"approveStatus": 0,
				"box": 1,
				"commentCount": 0,
				"created": "2016-07-23 16:54:32",
				"deleted": 0,
				"deposit": 3000,
				"description": "快点联系我吧 各种VR设备等着您，18810056836",
				"favor": false,
				"favors": 0,
				"id": 1152,
				"images": [
					{
						"created": 1469264072000,
						"height": 960,
						"id": 1298,
						"origin": "/store/origin/2016/0723/231654320m4a.jpg",
						"preview": "/store/thumbs/2016/0723/23165432j75r.jpg",
						"targetId": 1152,
						"width": 1280
					}, {
						"created": 1469264072000,
						"height": 2448,
						"id": 1299,
						"origin": "/store/origin/2016/0723/23165432ddoy.jpg",
						"preview": "/store/thumbs/2016/0723/231654327m0a.jpg",
						"targetId": 1152,
						"width": 3264
					}, {
						"created": 1469264072000,
						"height": 2448,
						"id": 1300,
						"origin": "/store/origin/2016/0723/23165432e4m3.jpg",
						"preview": "/store/thumbs/2016/0723/23165432vsdy.jpg",
						"targetId": 1152,
						"width": 3264
					}
				],
				"keyList": [],
				"lat": 39.9818,
				"leaseCount": 0,
				"lendMode": 0,
				"lon": 116.311,
				"name": "VR一体机",
				"price": 60,
				"priceMode": 2,
				"quantity": 1,
				"remain": 1,
				"status": 0,
				"tags": [
					{
						"created": "2016-05-10 11:37:23",
						"grayIcon": "/store/thumbs/2016/0511/111124215k4v.png",
						"icon": "/store/thumbs/2016/0511/11112421lugt.png",
						"id": 9,
						"name": "电子数码"
					}
				],
				"user": {
					"avatar": "/store/ava/364/0/0/0.jpg?t=1468769474000",
					"avatar80": "/store/ava/364/0/0/80.jpg?t=1468769474000",
					"birthday": "1990-01-01",
					"borrowScale": 0,
					"borrowScaleAVG": 5,
					"borrowTimes": 0,
					"city": "",
					"cityId": 0,
					"created": "2016-07-17 23:31:14",
					"gender": 1,
					"id": 364,
					"invite": 0,
					"lat": 0,
					"lendScale": 0,
					"lendScaleAVG": 5,
					"lendTimes": 0,
					"lon": 0,
					"mobile": "18810056836",
					"nickname": "VR总代理",
					"platform": 0,
					"signature": "",
					"status": 0,
					"studentStatus": 0,
					"updated": "2016-07-17 23:31:14",
					"zhimaStatus": 0
				},
				"weight": 0
			}
		],
		"first": true,
		"last": false,
		"number": 0,
		"numberOfElements": 6,
		"size": 6,
		"totalElements": 109,
		"totalPages": 19
	},
	"message": "操作成功"
}