{
	"code": 0,
	"data": {
		"content": [
			{
				"active": 0,
				"address": "科群大厦北京市海淀区北四环中路257号",
				"approveStatus": 0,
				"box": 1,
				"commentCount": 0,
				"created": "2016-08-18 21:16:56",
				"deleted": 0,
				"deposit": 200,
				"description": "3-4人大帐篷，自动双层防雨，还未用过，很新",
				"favor": false,
				"favors": 10,
				"id": 1501,
				"images": [
					{
						"created": 1471526216000,
						"height": 800,
						"id": 2085,
						"origin": "/store/origin/2016/0818/18211655tcuc.jpg",
						"preview": "/store/thumbs/2016/0818/182116550nsw.jpg",
						"targetId": 1501,
						"width": 800
					}, {
						"created": 1471526216000,
						"height": 768,
						"id": 2086,
						"origin": "/store/origin/2016/0818/18211655hkvt.png",
						"preview": "/store/thumbs/2016/0818/18211655w8xh.png",
						"targetId": 1501,
						"width": 719
					}
				],
				"keyList": [],
				"lat": 39.9932,
				"leaseCount": 0,
				"lendMode": 1,
				"lon": 116.364,
				"name": "野外露营帐篷",
				"price": 35,
				"priceMode": 3,
				"quantity": 1,
				"remain": 1,
				"status": 0,
				"tags": [
					{
						"created": "2016-05-10 11:36:39",
						"grayIcon": "/store/thumbs/2016/0511/111125463b1y.png",
						"icon": "/store/thumbs/2016/0511/11112546oqzr.png",
						"id": 4,
						"name": "户外远足"
					}
				],
				"user": {
					"avatar": "/store/ava/73/0/0/0.jpg?t=1487994964000",
					"avatar80": "/store/ava/73/0/0/80.jpg?t=1487994964000",
					"birthday": "1994-03-12",
					"borrowScale": 60,
					"borrowScaleAVG": 5,
					"borrowTimes": 12,
					"city": "北京市 海淀区",
					"cityId": 0,
					"created": "2016-07-09 13:54:37",
					"gender": 1,
					"id": 73,
					"invite": 0,
					"lat": 0,
					"lendScale": 30,
					"lendScaleAVG": 5,
					"lendTimes": 6,
					"lon": 0,
					"mobile": "18811771845",
					"nickname": "Bruce",
					"platform": 0,
					"schoolName": "北京科技大学",
					"signature": "活鱼逆流而上，死鱼随波逐流。",
					"status": 0,
					"studentStatus": 1,
					"updated": "2017-02-25 11:56:04",
					"zhimaDate": "2016-12-03",
					"zhimaStatus": 1
				},
				"weight": 0
			}, {
				"active": 0,
				"address": "北京市西城区金融街金城坊街2号金融街购物中心",
				"approveStatus": 0,
				"box": 1,
				"commentCount": 0,
				"created": "2016-09-12 15:45:44",
				"deleted": 0,
				"deposit": 80,
				"description": "户外吊床，外出游玩很方便，还方便携带",
				"favor": false,
				"favors": 1,
				"id": 1738,
				"images": [
					{
						"created": 1473666344000,
						"height": 962,
						"id": 2955,
						"origin": "/store/origin/2016/0912/12154544wqdh.jpg",
						"preview": "/store/thumbs/2016/0912/12154544gqfo.jpg",
						"targetId": 1738,
						"width": 640
					}, {
						"created": 1473666344000,
						"height": 957,
						"id": 2956,
						"origin": "/store/origin/2016/0912/12154544cvcg.jpg",
						"preview": "/store/thumbs/2016/0912/12154544ir96.jpg",
						"targetId": 1738,
						"width": 640
					}, {
						"created": 1473666344000,
						"height": 955,
						"id": 2957,
						"origin": "/store/origin/2016/0912/12154544tj19.jpg",
						"preview": "/store/thumbs/2016/0912/12154544k2fq.jpg",
						"targetId": 1738,
						"width": 640
					}, {
						"created": 1473666344000,
						"height": 917,
						"id": 2958,
						"origin": "/store/origin/2016/0912/121545445kul.jpg",
						"preview": "/store/thumbs/2016/0912/12154544g9z7.jpg",
						"targetId": 1738,
						"width": 640
					}
				],
				"keyList": [],
				"lat": 39.9212,
				"leaseCount": 0,
				"lendMode": 0,
				"lon": 116.369,
				"name": "户外吊床",
				"price": 10,
				"priceMode": 2,
				"quantity": 1,
				"remain": 1,
				"status": 0,
				"tags": [
					{
						"created": "2016-05-10 11:36:08",
						"grayIcon": "/store/thumbs/2016/0511/111126254hnv.png",
						"icon": "/store/thumbs/2016/0511/111126259sf5.png",
						"id": 1,
						"name": "运动健身"
					}, {
						"created": "2016-05-10 11:36:39",
						"grayIcon": "/store/thumbs/2016/0511/111125463b1y.png",
						"icon": "/store/thumbs/2016/0511/11112546oqzr.png",
						"id": 4,
						"name": "户外远足"
					}, {
						"created": "2016-05-10 11:37:07",
						"grayIcon": "/store/thumbs/2016/0511/11112452b6kw.png",
						"icon": "/store/thumbs/2016/0511/111124510fu9.png",
						"id": 7,
						"name": "出行代步"
					}
				],
				"user": {
					"avatar": "/store/ava/962/1/0/0.jpg?t=1473658728000",
					"avatar80": "/store/ava/962/1/0/80.jpg?t=1473658728000",
					"birthday": "1990-01-01",
					"borrowScale": 0,
					"borrowScaleAVG": 5,
					"borrowTimes": 0,
					"city": "",
					"cityId": 0,
					"created": "2016-09-12 13:38:48",
					"gender": 1,
					"id": 1959,
					"invite": 0,
					"lat": 0,
					"lendScale": 0,
					"lendScaleAVG": 5,
					"lendTimes": 0,
					"lon": 0,
					"mobile": "18201565822",
					"nickname": "李默默",
					"platform": 0,
					"signature": "",
					"status": 0,
					"studentStatus": 0,
					"updated": "2016-09-12 13:38:48",
					"zhimaStatus": 0
				},
				"weight": 0
			}, {
				"active": 0,
				"address": "北京市北京林业大学-综合楼",
				"approveStatus": 0,
				"box": 1,
				"commentCount": 0,
				"created": "2016-07-14 21:49:52",
				"deleted": 0,
				"deposit": 40,
				"description": "方便携带",
				"favor": false,
				"favors": 0,
				"id": 380,
				"images": [
					{
						"created": 1468504192000,
						"height": 2448,
						"id": 264,
						"origin": "/store/origin/2016/0714/142149512yio.jpg",
						"preview": "/store/thumbs/2016/0714/14214951mvur.jpg",
						"targetId": 380,
						"width": 2448
					}
				],
				"keyList": [],
				"lat": 39.9678,
				"leaseCount": 0,
				"lendMode": 0,
				"lon": 116.38,
				"name": "便携手电",
				"price": 1,
				"priceMode": 2,
				"quantity": 1,
				"remain": 1,
				"status": 0,
				"tags": [
					{
						"created": "2016-05-10 11:36:39",
						"grayIcon": "/store/thumbs/2016/0511/111125463b1y.png",
						"icon": "/store/thumbs/2016/0511/11112546oqzr.png",
						"id": 4,
						"name": "户外远足"
					}, {
						"created": "2016-05-10 11:36:48",
						"grayIcon": "/store/thumbs/2016/0511/11112521vwyq.png",
						"icon": "/store/thumbs/2016/0511/11112521cwh5.png",
						"id": 5,
						"name": "阅读学习"
					}, {
						"created": "2016-05-10 11:37:23",
						"grayIcon": "/store/thumbs/2016/0511/111124215k4v.png",
						"icon": "/store/thumbs/2016/0511/11112421lugt.png",
						"id": 9,
						"name": "电子数码"
					}
				],
				"user": {
					"avatar": "/store/ava/154/0/0/0.jpg?t=1468376698000",
					"avatar80": "/store/ava/154/0/0/80.jpg?t=1468376698000",
					"birthday": "1990-01-01",
					"borrowScale": 0,
					"borrowScaleAVG": 5,
					"borrowTimes": 0,
					"city": "",
					"cityId": 0,
					"created": "2016-07-13 10:24:58",
					"gender": 1,
					"id": 154,
					"invite": 0,
					"lat": 0,
					"lendScale": 0,
					"lendScaleAVG": 5,
					"lendTimes": 0,
					"lon": 0,
					"mobile": "15210282526",
					"nickname": "种树的菇凉",
					"platform": 0,
					"signature": "",
					"status": 0,
					"studentStatus": 0,
					"updated": "2016-07-13 10:24:58",
					"zhimaStatus": 0
				},
				"weight": 0
			}, {
				"active": 0,
				"address": "海珠区赤岗路187号大塘聚德西路利和街坚真花园",
				"approveStatus": 0,
				"box": 1,
				"commentCount": 0,
				"created": "2016-10-17 20:15:48",
				"deleted": 0,
				"deposit": 2000,
				"description": " #潜水装备出租#SUUNTO D4i 出租 15元一天，7天起租。押金2000，10天9折，来回快递费十天以下租方承担，十天以上双方各付一程，刚刚换的电池，保证质量。想要的，可以私聊我，表在广州",
				"favor": false,
				"favors": 3,
				"id": 1954,
				"images": [
					{
						"created": 1476706548000,
						"height": 2448,
						"id": 3466,
						"origin": "/store/origin/2016/1017/172015488gwg.jpg",
						"preview": "/store/thumbs/2016/1017/17201548o8g4.jpg",
						"targetId": 1954,
						"width": 3264
					}, {
						"created": 1476706548000,
						"height": 2448,
						"id": 3467,
						"origin": "/store/origin/2016/1017/172015480pbv.jpg",
						"preview": "/store/thumbs/2016/1017/172015488ogq.jpg",
						"targetId": 1954,
						"width": 3264
					}
				],
				"keyList": [],
				"lat": 23.0881,
				"leaseCount": 0,
				"lendMode": 2,
				"lon": 113.333,
				"name": "潜水装备潜水表出租SUUNTO D4i 出租仅15元一天",
				"price": 15,
				"priceMode": 2,
				"quantity": 1,
				"remain": 1,
				"status": 0,
				"tags": [
					{
						"created": "2016-05-10 11:36:08",
						"grayIcon": "/store/thumbs/2016/0511/111126254hnv.png",
						"icon": "/store/thumbs/2016/0511/111126259sf5.png",
						"id": 1,
						"name": "运动健身"
					}, {
						"created": "2016-05-10 11:36:39",
						"grayIcon": "/store/thumbs/2016/0511/111125463b1y.png",
						"icon": "/store/thumbs/2016/0511/11112546oqzr.png",
						"id": 4,
						"name": "户外远足"
					}, {
						"created": "2016-05-10 11:37:23",
						"grayIcon": "/store/thumbs/2016/0511/111124215k4v.png",
						"icon": "/store/thumbs/2016/0511/11112421lugt.png",
						"id": 9,
						"name": "电子数码"
					}
				],
				"user": {
					"avatar": "/store/ava/170/3/0/0.jpg?t=1476705961000",
					"avatar80": "/store/ava/170/3/0/80.jpg?t=1476705961000",
					"birthday": "1990-01-01",
					"borrowScale": 0,
					"borrowScaleAVG": 5,
					"borrowTimes": 0,
					"city": "",
					"cityId": 0,
					"created": "2016-10-17 20:06:01",
					"gender": 1,
					"id": 3161,
					"invite": 0,
					"lat": 0,
					"lendScale": 0,
					"lendScaleAVG": 5,
					"lendTimes": 0,
					"lon": 0,
					"mobile": "18922717550",
					"nickname": "杨凯",
					"platform": 0,
					"signature": "",
					"status": 0,
					"studentStatus": 0,
					"updated": "2016-10-17 20:06:01",
					"zhimaStatus": 0
				},
				"weight": 0
			}, {
				"active": 0,
				"address": "北京科技大学-学生公寓7斋\n北京市海淀区学院路30号",
				"approveStatus": 0,
				"box": 1,
				"commentCount": 0,
				"created": "2016-07-19 19:51:41",
				"deleted": 0,
				"deposit": 10,
				"description": "雅格小型手电筒，可充电，方便携带。",
				"favor": false,
				"favors": 0,
				"id": 868,
				"images": [
					{
						"created": 1468929101000,
						"height": 405,
						"id": 933,
						"origin": "/store/origin/2016/0719/19195141vwyp.jpg",
						"preview": "/store/thumbs/2016/0719/1919514135wq.jpg",
						"targetId": 868,
						"width": 210
					}
				],
				"keyList": [],
				"lat": 39.9943,
				"leaseCount": 0,
				"lendMode": 0,
				"lon": 116.366,
				"name": "LED可充电手电筒",
				"price": 1,
				"priceMode": 2,
				"quantity": 1,
				"remain": 1,
				"status": 0,
				"tags": [
					{
						"created": "2016-05-10 11:36:24",
						"grayIcon": "/store/thumbs/2016/0511/111126122esb.png",
						"icon": "/store/thumbs/2016/0511/11112612run5.png",
						"id": 2,
						"name": "精致生活"
					}
				],
				"user": {
					"avatar": "/store/ava/159/0/0/0.jpg?t=1468395970000",
					"avatar80": "/store/ava/159/0/0/80.jpg?t=1468395970000",
					"birthday": "1990-01-01",
					"borrowScale": 0,
					"borrowScaleAVG": 5,
					"borrowTimes": 0,
					"city": "",
					"cityId": 0,
					"created": "2016-07-13 15:46:10",
					"gender": 1,
					"id": 159,
					"invite": 0,
					"lat": 0,
					"lendScale": 0,
					"lendScaleAVG": 5,
					"lendTimes": 0,
					"lon": 0,
					"mobile": "18811329886",
					"nickname": "DOVE ",
					"platform": 0,
					"signature": "",
					"status": 0,
					"studentStatus": 0,
					"updated": "2016-07-13 15:46:10",
					"zhimaStatus": 0
				},
				"weight": 0
			}, {
				"active": 0,
				"address": "陕西省杨凌示范区西农路22号西北农林科技大学北校区",
				"approveStatus": 0,
				"box": 1,
				"commentCount": 0,
				"created": "2016-11-13 14:35:28",
				"deleted": 0,
				"deposit": 5,
				"description": "工训作品",
				"favor": false,
				"favors": 0,
				"id": 2193,
				"images": [
					{
						"created": 1479018928000,
						"height": 2448,
						"id": 3889,
						"origin": "/store/origin/2016/1113/131435280ocx.jpg",
						"preview": "/store/thumbs/2016/1113/13143528foln.jpg",
						"targetId": 2193,
						"width": 2448
					}
				],
				"keyList": [],
				"lat": 34.2679,
				"leaseCount": 0,
				"lendMode": 0,
				"lon": 108.078,
				"name": "锤子",
				"price": 1,
				"priceMode": 2,
				"quantity": 1,
				"remain": 1,
				"status": 0,
				"tags": [
					{
						"created": "2016-05-10 11:36:48",
						"grayIcon": "/store/thumbs/2016/0511/11112521vwyq.png",
						"icon": "/store/thumbs/2016/0511/11112521cwh5.png",
						"id": 5,
						"name": "阅读学习"
					}
				],
				"user": {
					"avatar": "/store/ava/168/0/0/0.jpg?t=1468420779000",
					"avatar80": "/store/ava/168/0/0/80.jpg?t=1468420779000",
					"birthday": "1990-01-01",
					"borrowScale": 0,
					"borrowScaleAVG": 5,
					"borrowTimes": 0,
					"city": "",
					"cityId": 0,
					"created": "2016-07-13 22:39:39",
					"gender": 1,
					"id": 168,
					"invite": 0,
					"lat": 0,
					"lendScale": 0,
					"lendScaleAVG": 5,
					"lendTimes": 0,
					"lon": 0,
					"mobile": "18821704252",
					"nickname": "宛得",
					"platform": 0,
					"signature": "",
					"status": 0,
					"studentStatus": 0,
					"updated": "2016-07-13 22:39:39",
					"zhimaStatus": 0
				},
				"weight": 0
			}
		],
		"first": true,
		"last": false,
		"number": 0,
		"numberOfElements": 6,
		"size": 6,
		"totalElements": 102,
		"totalPages": 17
	},
	"message": "操作成功"
}