{
	"code": 0,
	"data": {
		"content": [
			{
				"active": 0,
				"address": "(null)北京科技大学六斋",
				"approveStatus": 0,
				"box": 1,
				"commentCount": 0,
				"created": "2016-07-14 16:08:15",
				"deleted": 0,
				"deposit": 1000,
				"description": "尼康经典机型",
				"favor": false,
				"favors": 7,
				"id": 354,
				"images": [
					{
						"created": 1468483695000,
						"height": 3456,
						"id": 206,
						"origin": "/store/origin/2016/0714/141608152vlc.jpg",
						"preview": "/store/thumbs/2016/0714/141608158wis.jpg",
						"targetId": 354,
						"width": 5184
					}, {
						"created": 1468483695000,
						"height": 3456,
						"id": 207,
						"origin": "/store/origin/2016/0714/1416081699ba.jpg",
						"preview": "/store/thumbs/2016/0714/141608164bdu.jpg",
						"targetId": 354,
						"width": 5184
					}
				],
				"keyList": [
					"单反"
				],
				"lat": 39.9859,
				"leaseCount": 0,
				"lendMode": 0,
				"lon": 116.351,
				"name": "尼康D300s",
				"price": 15,
				"priceMode": 2,
				"quantity": 1,
				"remain": 1,
				"searchKey": "单反",
				"status": 0,
				"tags": [
					{
						"created": "2016-05-10 11:36:39",
						"grayIcon": "/store/thumbs/2016/0511/111125463b1y.png",
						"icon": "/store/thumbs/2016/0511/11112546oqzr.png",
						"id": 4,
						"name": "户外远足"
					}, {
						"created": "2016-05-10 11:36:58",
						"grayIcon": "/store/thumbs/2016/0511/11112501a52j.png",
						"icon": "/store/thumbs/2016/0511/11112501me4y.png",
						"id": 6,
						"name": "才艺技能"
					}, {
						"created": "2016-05-10 11:37:23",
						"grayIcon": "/store/thumbs/2016/0511/111124215k4v.png",
						"icon": "/store/thumbs/2016/0511/11112421lugt.png",
						"id": 9,
						"name": "电子数码"
					}
				],
				"user": {
					"avatar": "/store/ava/70/0/0/0.jpg?t=1486381543000",
					"avatar80": "/store/ava/70/0/0/80.jpg?t=1486381543000",
					"birthday": "2016-07-23",
					"borrowScale": 45,
					"borrowScaleAVG": 5,
					"borrowTimes": 9,
					"city": "",
					"cityId": 0,
					"created": "2016-07-09 12:34:07",
					"gender": 1,
					"id": 70,
					"invite": 0,
					"lat": 0,
					"lendScale": 0,
					"lendScaleAVG": 5,
					"lendTimes": 0,
					"lon": 0,
					"mobile": "15723269203",
					"nickname": "MJ",
					"platform": 0,
					"schoolName": "北京科技大学",
					"signature": "",
					"status": 0,
					"studentStatus": 1,
					"updated": "2017-02-06 19:45:43",
					"zhimaStatus": 0
				},
				"weight": 0
			}, {
				"active": 0,
				"address": "知春里\n中国北京市海淀区双榆树北路24号楼",
				"approveStatus": 0,
				"box": 1,
				"commentCount": 0,
				"created": "2016-07-14 20:44:01",
				"deleted": 0,
				"deposit": 1500,
				"description": "【仅出租】理光（Ricoh） WG-4 数码四防防水相机灰色 个人偶尔潜水使用，理光四防相机，自己又配了一电一充，足够使用。成像质量很不错。\n全部配件如图：相机、原装电池一块、备用电池一块、座充一个、手带一个、相机包一个、内衬带一个、8G内存卡一个。\n由于大部分时间闲置，所以出租。\n暂定20一天，可优惠，押金1500吧。有需要请提前联系。",
				"favor": false,
				"favors": 5,
				"id": 371,
				"images": [
					{
						"created": 1468500241000,
						"height": 960,
						"id": 238,
						"origin": "/store/origin/2016/0714/14204401wq4d.png",
						"preview": "/store/thumbs/2016/0714/142044017e7v.png",
						"targetId": 371,
						"width": 540
					}, {
						"created": 1468500241000,
						"height": 640,
						"id": 239,
						"origin": "/store/origin/2016/0714/14204401l7cr.png",
						"preview": "/store/thumbs/2016/0714/14204401a0a2.png",
						"targetId": 371,
						"width": 360
					}, {
						"created": 1468500241000,
						"height": 960,
						"id": 240,
						"origin": "/store/origin/2016/0714/14204401y9sa.png",
						"preview": "/store/thumbs/2016/0714/14204401mrmm.png",
						"targetId": 371,
						"width": 540
					}, {
						"created": 1468500241000,
						"height": 1920,
						"id": 241,
						"origin": "/store/origin/2016/0714/14204401uwgl.png",
						"preview": "/store/thumbs/2016/0714/14204401cxqt.png",
						"targetId": 371,
						"width": 1080
					}, {
						"created": 1468500241000,
						"height": 960,
						"id": 242,
						"origin": "/store/origin/2016/0714/142044014f3u.png",
						"preview": "/store/thumbs/2016/0714/14204401fjqw.png",
						"targetId": 371,
						"width": 540
					}, {
						"created": 1468500241000,
						"height": 320,
						"id": 243,
						"origin": "/store/origin/2016/0714/14204402jaob.png",
						"preview": "/store/thumbs/2016/0714/14204402dq57.png",
						"targetId": 371,
						"width": 180
					}, {
						"created": 1468500241000,
						"height": 1920,
						"id": 244,
						"origin": "/store/origin/2016/0714/14204402u3m9.png",
						"preview": "/store/thumbs/2016/0714/14204402ku0u.png",
						"targetId": 371,
						"width": 1080
					}, {
						"created": 1468500241000,
						"height": 320,
						"id": 245,
						"origin": "/store/origin/2016/0714/14204402g0y2.png",
						"preview": "/store/thumbs/2016/0714/14204402uqp3.png",
						"targetId": 371,
						"width": 180
					}
				],
				"keyList": [],
				"lat": 39.9787,
				"leaseCount": 0,
				"lendMode": 0,
				"lon": 116.329,
				"name": "理光WG-4四防防水相机",
				"price": 20,
				"priceMode": 2,
				"quantity": 1,
				"remain": 1,
				"status": 0,
				"tags": [
					{
						"created": "2016-05-10 11:36:39",
						"grayIcon": "/store/thumbs/2016/0511/111125463b1y.png",
						"icon": "/store/thumbs/2016/0511/11112546oqzr.png",
						"id": 4,
						"name": "户外远足"
					}, {
						"created": "2016-05-10 11:37:23",
						"grayIcon": "/store/thumbs/2016/0511/111124215k4v.png",
						"icon": "/store/thumbs/2016/0511/11112421lugt.png",
						"id": 9,
						"name": "电子数码"
					}
				],
				"user": {
					"avatar": "/store/ava/205/0/0/0.jpg?t=1468499874000",
					"avatar80": "/store/ava/205/0/0/80.jpg?t=1468499874000",
					"birthday": "1990-01-01",
					"borrowScale": 0,
					"borrowScaleAVG": 5,
					"borrowTimes": 0,
					"city": "",
					"cityId": 0,
					"created": "2016-07-14 20:37:54",
					"gender": 1,
					"id": 205,
					"invite": 0,
					"lat": 0,
					"lendScale": 0,
					"lendScaleAVG": 5,
					"lendTimes": 0,
					"lon": 0,
					"mobile": "15810001612",
					"nickname": "LeiZiZheng",
					"platform": 0,
					"signature": "",
					"status": 0,
					"studentStatus": 0,
					"updated": "2016-07-14 20:37:54",
					"zhimaStatus": 0
				},
				"weight": 0
			}, {
				"active": 0,
				"address": "北京市中纺里28号楼",
				"approveStatus": 0,
				"box": 1,
				"commentCount": 0,
				"created": "2016-07-15 13:50:38",
				"deleted": 0,
				"deposit": 50000,
				"description": "哈苏中画幅，数码后背",
				"favor": false,
				"favors": 0,
				"id": 403,
				"images": [
					{
						"created": 1468561838000,
						"height": 3024,
						"id": 298,
						"origin": "/store/origin/2016/0715/15135038cy75.jpg",
						"preview": "/store/thumbs/2016/0715/15135038awyj.jpg",
						"targetId": 403,
						"width": 4032
					}, {
						"created": 1468561838000,
						"height": 3024,
						"id": 299,
						"origin": "/store/origin/2016/0715/15135039jqbv.jpg",
						"preview": "/store/thumbs/2016/0715/151350397xnh.jpg",
						"targetId": 403,
						"width": 4032
					}
				],
				"keyList": [],
				"lat": 31.2205,
				"leaseCount": 0,
				"lendMode": 0,
				"lon": 121.538,
				"name": "哈苏 H3D-39 配HC50-110",
				"price": 2000,
				"priceMode": 2,
				"quantity": 1,
				"remain": 1,
				"status": 0,
				"tags": [
					{
						"created": "2016-05-10 11:37:23",
						"grayIcon": "/store/thumbs/2016/0511/111124215k4v.png",
						"icon": "/store/thumbs/2016/0511/11112421lugt.png",
						"id": 9,
						"name": "电子数码"
					}
				],
				"user": {
					"avatar": "/store/ava/235/0/0/0.jpg?t=1468561475000",
					"avatar80": "/store/ava/235/0/0/80.jpg?t=1468561475000",
					"birthday": "1990-01-01",
					"borrowScale": 0,
					"borrowScaleAVG": 5,
					"borrowTimes": 0,
					"city": "",
					"cityId": 0,
					"created": "2016-07-15 13:44:35",
					"gender": 1,
					"id": 235,
					"invite": 0,
					"lat": 0,
					"lendScale": 0,
					"lendScaleAVG": 5,
					"lendTimes": 0,
					"lon": 0,
					"mobile": "13811672298",
					"nickname": "Yu53",
					"platform": 0,
					"signature": "",
					"status": 0,
					"studentStatus": 0,
					"updated": "2016-07-15 13:44:35",
					"zhimaStatus": 0
				},
				"weight": 0
			}, {
				"active": 0,
				"address": "北京市昌平区387号蓝天嘉园",
				"approveStatus": 0,
				"box": 1,
				"commentCount": 0,
				"created": "2016-07-15 14:15:16",
				"deleted": 0,
				"deposit": 7000,
				"description": "松下GH4 4k相机",
				"favor": false,
				"favors": 1,
				"id": 407,
				"images": [
					{
						"created": 1468563316000,
						"height": 2448,
						"id": 303,
						"origin": "/store/origin/2016/0715/15141515gd53.jpg",
						"preview": "/store/thumbs/2016/0715/15141515qg3w.jpg",
						"targetId": 407,
						"width": 3264
					}
				],
				"keyList": [],
				"lat": 39.9573,
				"leaseCount": 0,
				"lendMode": 0,
				"lon": 116.373,
				"name": "松下GH4 4k相机",
				"price": 100,
				"priceMode": 2,
				"quantity": 1,
				"remain": 1,
				"status": 0,
				"tags": [
					{
						"created": "2016-05-10 11:37:23",
						"grayIcon": "/store/thumbs/2016/0511/111124215k4v.png",
						"icon": "/store/thumbs/2016/0511/11112421lugt.png",
						"id": 9,
						"name": "电子数码"
					}
				],
				"user": {
					"avatar": "/store/ava/237/0/0/0.jpg?t=1468563045000",
					"avatar80": "/store/ava/237/0/0/80.jpg?t=1468563045000",
					"birthday": "1990-01-01",
					"borrowScale": 0,
					"borrowScaleAVG": 5,
					"borrowTimes": 0,
					"city": "",
					"cityId": 0,
					"created": "2016-07-15 14:10:45",
					"gender": 1,
					"id": 237,
					"invite": 0,
					"lat": 0,
					"lendScale": 0,
					"lendScaleAVG": 5,
					"lendTimes": 0,
					"lon": 0,
					"mobile": "13269592860",
					"nickname": "影视圈联盟",
					"platform": 0,
					"signature": "",
					"status": 0,
					"studentStatus": 0,
					"updated": "2016-07-15 14:10:45",
					"zhimaStatus": 0
				},
				"weight": 0
			}, {
				"active": 0,
				"address": "北京市昌平区387号蓝天嘉园",
				"approveStatus": 0,
				"box": 1,
				"commentCount": 0,
				"created": "2016-07-15 14:17:00",
				"deleted": 0,
				"deposit": 1000,
				"description": "zoom h4n 录音机",
				"favor": false,
				"favors": 1,
				"id": 408,
				"images": [
					{
						"created": 1468563420000,
						"height": 960,
						"id": 304,
						"origin": "/store/origin/2016/0715/151416592hmz.jpg",
						"preview": "/store/thumbs/2016/0715/15141659s6pm.jpg",
						"targetId": 408,
						"width": 960
					}
				],
				"keyList": [],
				"lat": 39.9573,
				"leaseCount": 0,
				"lendMode": 0,
				"lon": 116.373,
				"name": "zoom h4n 录音机",
				"price": 50,
				"priceMode": 2,
				"quantity": 1,
				"remain": 1,
				"status": 0,
				"tags": [
					{
						"created": "2016-05-10 11:37:23",
						"grayIcon": "/store/thumbs/2016/0511/111124215k4v.png",
						"icon": "/store/thumbs/2016/0511/11112421lugt.png",
						"id": 9,
						"name": "电子数码"
					}
				],
				"user": {
					"avatar": "/store/ava/237/0/0/0.jpg?t=1468563045000",
					"avatar80": "/store/ava/237/0/0/80.jpg?t=1468563045000",
					"birthday": "1990-01-01",
					"borrowScale": 0,
					"borrowScaleAVG": 5,
					"borrowTimes": 0,
					"city": "",
					"cityId": 0,
					"created": "2016-07-15 14:10:45",
					"gender": 1,
					"id": 237,
					"invite": 0,
					"lat": 0,
					"lendScale": 0,
					"lendScaleAVG": 5,
					"lendTimes": 0,
					"lon": 0,
					"mobile": "13269592860",
					"nickname": "影视圈联盟",
					"platform": 0,
					"signature": "",
					"status": 0,
					"studentStatus": 0,
					"updated": "2016-07-15 14:10:45",
					"zhimaStatus": 0
				},
				"weight": 0
			}, {
				"active": 0,
				"address": "北京市蓝天嘉园",
				"approveStatus": 0,
				"box": 1,
				"commentCount": 0,
				"created": "2016-07-15 14:19:42",
				"deleted": 0,
				"deposit": 500,
				"description": "4*55W三基色柔光灯套装摄像冷光排灯虚拟影视演播室抠像灯光\n",
				"favor": false,
				"favors": 0,
				"id": 409,
				"images": [
					{
						"created": 1468563583000,
						"height": 386,
						"id": 305,
						"origin": "/store/origin/2016/0715/15141942lnci.jpg",
						"preview": "/store/thumbs/2016/0715/15141942te08.jpg",
						"targetId": 409,
						"width": 400
					}
				],
				"keyList": [
					"灯光器材"
				],
				"lat": 39.9573,
				"leaseCount": 0,
				"lendMode": 0,
				"lon": 116.373,
				"name": "4*55W三基色柔光灯套装摄像冷光排灯虚拟影视演播室抠像灯光 ",
				"price": 70,
				"priceMode": 2,
				"quantity": 1,
				"remain": 1,
				"searchKey": "灯光器材",
				"status": 0,
				"tags": [
					{
						"created": "2016-05-10 11:37:23",
						"grayIcon": "/store/thumbs/2016/0511/111124215k4v.png",
						"icon": "/store/thumbs/2016/0511/11112421lugt.png",
						"id": 9,
						"name": "电子数码"
					}
				],
				"user": {
					"avatar": "/store/ava/237/0/0/0.jpg?t=1468563045000",
					"avatar80": "/store/ava/237/0/0/80.jpg?t=1468563045000",
					"birthday": "1990-01-01",
					"borrowScale": 0,
					"borrowScaleAVG": 5,
					"borrowTimes": 0,
					"city": "",
					"cityId": 0,
					"created": "2016-07-15 14:10:45",
					"gender": 1,
					"id": 237,
					"invite": 0,
					"lat": 0,
					"lendScale": 0,
					"lendScaleAVG": 5,
					"lendTimes": 0,
					"lon": 0,
					"mobile": "13269592860",
					"nickname": "影视圈联盟",
					"platform": 0,
					"signature": "",
					"status": 0,
					"studentStatus": 0,
					"updated": "2016-07-15 14:10:45",
					"zhimaStatus": 0
				},
				"weight": 0
			}
		],
		"first": true,
		"last": false,
		"number": 0,
		"numberOfElements": 6,
		"size": 6,
		"totalElements": 620,
		"totalPages": 104
	},
	"message": "操作成功"
}