{
	"code": 0,
	"data": {
		"content": [
			{
				"active": 0,
				"address": "武汉市洪山区徐东村小区-3栋",
				"approveStatus": 0,
				"box": 1,
				"commentCount": 0,
				"created": "2017-03-09 22:54:01",
				"deleted": 0,
				"deposit": 3800,
				"description": "卡西欧相机tr600已经升级外观性能都很好，买了没怎么用一直都放着，全身都贴了膜，30一天一个星期200\n磕碰200 划痕的问题应该不会出现，出现100 镜片碎了300屏幕碎了自己看着办吧那押金也不用退了估计",
				"favor": false,
				"favors": 4,
				"id": 2846,
				"images": [
					{
						"created": 1489071241000,
						"height": 1068,
						"id": 6078,
						"origin": "/store/origin/2017/0309/09225400wthv.jpg",
						"preview": "/store/thumbs/2017/0309/0922540034wy.jpg",
						"targetId": 2846,
						"width": 800
					}, {
						"created": 1489071241000,
						"height": 1068,
						"id": 6079,
						"origin": "/store/origin/2017/0309/09225400odk4.jpg",
						"preview": "/store/thumbs/2017/0309/09225400cf44.jpg",
						"targetId": 2846,
						"width": 800
					}, {
						"created": 1489383545000,
						"height": 667,
						"id": 6154,
						"origin": "/store/origin/2017/0313/13133905pqnf.jpg",
						"preview": "/store/thumbs/2017/0313/13133905dixc.jpg",
						"targetId": 2846,
						"width": 500
					}, {
						"created": 1489383545000,
						"height": 667,
						"id": 6155,
						"origin": "/store/origin/2017/0313/131339058e5i.jpg",
						"preview": "/store/thumbs/2017/0313/13133905y11k.jpg",
						"targetId": 2846,
						"width": 500
					}
				],
				"keyList": [],
				"lat": 30.5966,
				"leaseCount": 0,
				"lendMode": 1,
				"lon": 114.352,
				"name": "卡西欧自拍神器tr600",
				"price": 30,
				"priceMode": 2,
				"quantity": 1,
				"remain": 2,
				"status": 0,
				"tags": [
					{
						"created": "2016-05-10 11:36:24",
						"grayIcon": "/store/thumbs/2016/0511/111126122esb.png",
						"icon": "/store/thumbs/2016/0511/11112612run5.png",
						"id": 2,
						"name": "精致生活"
					}, {
						"created": "2016-05-10 11:36:39",
						"grayIcon": "/store/thumbs/2016/0511/111125463b1y.png",
						"icon": "/store/thumbs/2016/0511/11112546oqzr.png",
						"id": 4,
						"name": "户外远足"
					}, {
						"created": "2016-05-10 11:37:23",
						"grayIcon": "/store/thumbs/2016/0511/111124215k4v.png",
						"icon": "/store/thumbs/2016/0511/11112421lugt.png",
						"id": 9,
						"name": "电子数码"
					}
				],
				"user": {
					"avatar": "/store/ava/800/7/0/0.jpg?t=1489070737000",
					"avatar80": "/store/ava/800/7/0/80.jpg?t=1489070737000",
					"birthday": "1990-01-01",
					"borrowScale": 0,
					"borrowScaleAVG": 5,
					"borrowTimes": 0,
					"city": "",
					"cityId": 0,
					"created": "2017-03-09 22:45:37",
					"gender": 1,
					"id": 7779,
					"invite": 0,
					"lat": 0,
					"lendScale": 0,
					"lendScaleAVG": 5,
					"lendTimes": 0,
					"lon": 0,
					"mobile": "18872217202",
					"nickname": "蹙丶",
					"platform": 0,
					"signature": "",
					"status": 0,
					"studentStatus": 0,
					"updated": "2017-03-09 22:45:37",
					"zhimaStatus": 0
				},
				"weight": 0
			}, {
				"active": 0,
				"address": "鑫成俊杰位于江岸南京路180号鑫成俊杰",
				"approveStatus": 0,
				"box": 1,
				"commentCount": 0,
				"created": "2016-09-06 11:21:26",
				"deleted": 0,
				"deposit": 150,
				"description": "山姆会员商店商业卡出租，10元一天，自提或邮费自理，押金150，退卡退押金，商业卡不限制使用人员，畅快购物！",
				"favor": false,
				"favors": 0,
				"id": 1639,
				"images": [
					{
						"created": 1473132086000,
						"height": 220,
						"id": 2676,
						"origin": "/store/origin/2016/0906/061121263rhw.jpg",
						"preview": "/store/thumbs/2016/0906/06112126wdh3.jpg",
						"targetId": 1639,
						"width": 337
					}
				],
				"keyList": [],
				"lat": 30.5912,
				"leaseCount": 0,
				"lendMode": 2,
				"lon": 114.296,
				"name": "山姆会员商店商业卡",
				"price": 10,
				"priceMode": 2,
				"quantity": 1,
				"remain": 1,
				"status": 0,
				"tags": [
					{
						"created": "2016-05-10 11:36:24",
						"grayIcon": "/store/thumbs/2016/0511/111126122esb.png",
						"icon": "/store/thumbs/2016/0511/11112612run5.png",
						"id": 2,
						"name": "精致生活"
					}
				],
				"user": {
					"avatar": "/store/ava/665/1/0/0.jpg?t=1473131727000",
					"avatar80": "/store/ava/665/1/0/80.jpg?t=1473131727000",
					"birthday": "1990-01-01",
					"borrowScale": 0,
					"borrowScaleAVG": 5,
					"borrowTimes": 0,
					"city": "",
					"cityId": 0,
					"created": "2016-09-06 11:15:27",
					"gender": 1,
					"id": 1662,
					"invite": 0,
					"lat": 0,
					"lendScale": 0,
					"lendScaleAVG": 5,
					"lendTimes": 0,
					"lon": 0,
					"mobile": "18672921314",
					"nickname": "张we",
					"platform": 0,
					"signature": "",
					"status": 0,
					"studentStatus": 0,
					"updated": "2016-09-06 11:15:27",
					"zhimaStatus": 0
				},
				"weight": 0
			}, {
				"active": 0,
				"address": "颐和丽晶\n江岸区黄孝河路8号（黄孝河路与惠济一路交汇处）",
				"approveStatus": 0,
				"box": 1,
				"commentCount": 0,
				"created": "2016-12-14 14:42:18",
				"deleted": 0,
				"deposit": 1000,
				"description": "轻度智能折叠电动车（可放入书包进地铁） 刚买的轻度折叠智能电动车，可折叠后放入背包，进地铁上公交，具体细节可看淘宝链接http://item.taobao.com/item.htm?id=541038092904，充满电续航25公里左右。3天起租，100元/3天",
				"favor": false,
				"favors": 1,
				"id": 2520,
				"images": [
					{
						"created": 1481697738000,
						"height": 957,
						"id": 4545,
						"origin": "/store/origin/2016/1214/14144217nhvv.jpg",
						"preview": "/store/thumbs/2016/1214/14144217465v.jpg",
						"targetId": 2520,
						"width": 1428
					}, {
						"created": 1481697738000,
						"height": 445,
						"id": 4546,
						"origin": "/store/origin/2016/1214/1414421849yz.jpg",
						"preview": "/store/thumbs/2016/1214/141442186tpd.jpg",
						"targetId": 2520,
						"width": 750
					}, {
						"created": 1481697738000,
						"height": 330,
						"id": 4547,
						"origin": "/store/origin/2016/1214/141442181hej.jpg",
						"preview": "/store/thumbs/2016/1214/14144218l7qi.jpg",
						"targetId": 2520,
						"width": 500
					}, {
						"created": 1481697738000,
						"height": 960,
						"id": 4548,
						"origin": "/store/origin/2016/1214/14144218v2hk.jpg",
						"preview": "/store/thumbs/2016/1214/141442189wt6.jpg",
						"targetId": 2520,
						"width": 620
					}, {
						"created": 1481697738000,
						"height": 960,
						"id": 4549,
						"origin": "/store/origin/2016/1214/14144218a1c0.jpg",
						"preview": "/store/thumbs/2016/1214/141442181l06.jpg",
						"targetId": 2520,
						"width": 620
					}, {
						"created": 1481697738000,
						"height": 1808,
						"id": 4550,
						"origin": "/store/origin/2016/1214/14144218esub.jpg",
						"preview": "/store/thumbs/2016/1214/14144218jggs.jpg",
						"targetId": 2520,
						"width": 1434
					}, {
						"created": 1481697738000,
						"height": 449,
						"id": 4551,
						"origin": "/store/origin/2016/1214/14144218l3he.jpg",
						"preview": "/store/thumbs/2016/1214/14144218l439.jpg",
						"targetId": 2520,
						"width": 750
					}, {
						"created": 1481697738000,
						"height": 1803,
						"id": 4552,
						"origin": "/store/origin/2016/1214/14144218i5lu.jpg",
						"preview": "/store/thumbs/2016/1214/14144218lf3v.jpg",
						"targetId": 2520,
						"width": 1407
					}
				],
				"keyList": [],
				"lat": 30.6181,
				"leaseCount": 0,
				"lendMode": 1,
				"lon": 114.294,
				"name": "轻度电动滑板车",
				"price": 35,
				"priceMode": 2,
				"quantity": 1,
				"remain": 1,
				"status": 0,
				"tags": [
					{
						"created": "2016-05-10 11:36:08",
						"grayIcon": "/store/thumbs/2016/0511/111126254hnv.png",
						"icon": "/store/thumbs/2016/0511/111126259sf5.png",
						"id": 1,
						"name": "运动健身"
					}, {
						"created": "2016-05-10 11:36:39",
						"grayIcon": "/store/thumbs/2016/0511/111125463b1y.png",
						"icon": "/store/thumbs/2016/0511/11112546oqzr.png",
						"id": 4,
						"name": "户外远足"
					}, {
						"created": "2016-05-10 11:37:07",
						"grayIcon": "/store/thumbs/2016/0511/11112452b6kw.png",
						"icon": "/store/thumbs/2016/0511/111124510fu9.png",
						"id": 7,
						"name": "出行代步"
					}
				],
				"user": {
					"avatar": "/dist/images/ava/default.png?t=1481696963000",
					"avatar80": "/dist/images/ava/default.png?t=1481696963000",
					"birthday": "1990-01-01",
					"borrowScale": 0,
					"borrowScaleAVG": 5,
					"borrowTimes": 0,
					"city": "",
					"cityId": 0,
					"created": "2016-12-14 14:29:23",
					"gender": 1,
					"id": 4645,
					"invite": 0,
					"lat": 0,
					"lendScale": 0,
					"lendScaleAVG": 5,
					"lendTimes": 0,
					"lon": 0,
					"mobile": "18071050150",
					"nickname": "博士",
					"platform": 0,
					"signature": "",
					"status": 0,
					"studentStatus": 0,
					"updated": "2016-12-14 14:29:23",
					"zhimaStatus": 0
				},
				"weight": 0
			}, {
				"active": 0,
				"address": "颐和丽晶\n江岸区黄孝河路8号（黄孝河路与惠济一路交汇处）",
				"approveStatus": 0,
				"box": 1,
				"commentCount": 0,
				"created": "2016-12-14 14:45:19",
				"deleted": 0,
				"deposit": 1600,
				"description": "白色小米平衡车，很新，骑行距离35公里，3天起租，100元/3天",
				"favor": false,
				"favors": 4,
				"id": 2521,
				"images": [
					{
						"created": 1481697919000,
						"height": 2288,
						"id": 4553,
						"origin": "/store/origin/2016/1214/14144518fuqb.jpg",
						"preview": "/store/thumbs/2016/1214/14144518tk1p.jpg",
						"targetId": 2521,
						"width": 1440
					}, {
						"created": 1481697919000,
						"height": 2288,
						"id": 4554,
						"origin": "/store/origin/2016/1214/1414451969du.jpg",
						"preview": "/store/thumbs/2016/1214/14144519mkq0.jpg",
						"targetId": 2521,
						"width": 1440
					}
				],
				"keyList": [],
				"lat": 30.6181,
				"leaseCount": 0,
				"lendMode": 1,
				"lon": 114.294,
				"name": "小米平衡车",
				"price": 35,
				"priceMode": 2,
				"quantity": 1,
				"remain": 1,
				"status": 0,
				"tags": [
					{
						"created": "2016-05-10 11:36:08",
						"grayIcon": "/store/thumbs/2016/0511/111126254hnv.png",
						"icon": "/store/thumbs/2016/0511/111126259sf5.png",
						"id": 1,
						"name": "运动健身"
					}, {
						"created": "2016-05-10 11:36:39",
						"grayIcon": "/store/thumbs/2016/0511/111125463b1y.png",
						"icon": "/store/thumbs/2016/0511/11112546oqzr.png",
						"id": 4,
						"name": "户外远足"
					}, {
						"created": "2016-05-10 11:37:07",
						"grayIcon": "/store/thumbs/2016/0511/11112452b6kw.png",
						"icon": "/store/thumbs/2016/0511/111124510fu9.png",
						"id": 7,
						"name": "出行代步"
					}
				],
				"user": {
					"avatar": "/dist/images/ava/default.png?t=1481696963000",
					"avatar80": "/dist/images/ava/default.png?t=1481696963000",
					"birthday": "1990-01-01",
					"borrowScale": 0,
					"borrowScaleAVG": 5,
					"borrowTimes": 0,
					"city": "",
					"cityId": 0,
					"created": "2016-12-14 14:29:23",
					"gender": 1,
					"id": 4645,
					"invite": 0,
					"lat": 0,
					"lendScale": 0,
					"lendScaleAVG": 5,
					"lendTimes": 0,
					"lon": 0,
					"mobile": "18071050150",
					"nickname": "博士",
					"platform": 0,
					"signature": "",
					"status": 0,
					"studentStatus": 0,
					"updated": "2016-12-14 14:29:23",
					"zhimaStatus": 0
				},
				"weight": 0
			}, {
				"active": 0,
				"address": "颐和丽晶\n江岸区黄孝河路8号（黄孝河路与惠济一路交汇处）",
				"approveStatus": 0,
				"box": 1,
				"commentCount": 0,
				"created": "2016-12-14 15:19:43",
				"deleted": 0,
				"deposit": 1500,
				"description": "佳能500D单反相机，自带18-55镜头，需要的话还可以给一个200mm的长焦镜头，2天起租，",
				"favor": false,
				"favors": 8,
				"id": 2522,
				"images": [
					{
						"created": 1481699983000,
						"height": 750,
						"id": 4555,
						"origin": "/store/origin/2016/1214/14151943wogv.jpg",
						"preview": "/store/thumbs/2016/1214/14151943jntc.jpg",
						"targetId": 2522,
						"width": 750
					}
				],
				"keyList": [],
				"lat": 30.6181,
				"leaseCount": 0,
				"lendMode": 1,
				"lon": 114.294,
				"name": "佳能500D单反相机",
				"price": 30,
				"priceMode": 2,
				"quantity": 1,
				"remain": 1,
				"status": 0,
				"tags": [
					{
						"created": "2016-05-10 11:36:24",
						"grayIcon": "/store/thumbs/2016/0511/111126122esb.png",
						"icon": "/store/thumbs/2016/0511/11112612run5.png",
						"id": 2,
						"name": "精致生活"
					}, {
						"created": "2016-05-10 11:36:39",
						"grayIcon": "/store/thumbs/2016/0511/111125463b1y.png",
						"icon": "/store/thumbs/2016/0511/11112546oqzr.png",
						"id": 4,
						"name": "户外远足"
					}, {
						"created": "2016-05-10 11:37:23",
						"grayIcon": "/store/thumbs/2016/0511/111124215k4v.png",
						"icon": "/store/thumbs/2016/0511/11112421lugt.png",
						"id": 9,
						"name": "电子数码"
					}
				],
				"user": {
					"avatar": "/dist/images/ava/default.png?t=1481696963000",
					"avatar80": "/dist/images/ava/default.png?t=1481696963000",
					"birthday": "1990-01-01",
					"borrowScale": 0,
					"borrowScaleAVG": 5,
					"borrowTimes": 0,
					"city": "",
					"cityId": 0,
					"created": "2016-12-14 14:29:23",
					"gender": 1,
					"id": 4645,
					"invite": 0,
					"lat": 0,
					"lendScale": 0,
					"lendScaleAVG": 5,
					"lendTimes": 0,
					"lon": 0,
					"mobile": "18071050150",
					"nickname": "博士",
					"platform": 0,
					"signature": "",
					"status": 0,
					"studentStatus": 0,
					"updated": "2016-12-14 14:29:23",
					"zhimaStatus": 0
				},
				"weight": 0
			}, {
				"active": 0,
				"address": "大自然东方盛宴\n湖北省武汉市东西湖区临空港大道金北一路德思远工业园1号楼",
				"approveStatus": 0,
				"box": 1,
				"commentCount": 0,
				"created": "2016-11-28 15:18:49",
				"deleted": 0,
				"deposit": 20,
				"description": "英雄122皮肤150禁止入内打排位",
				"favor": false,
				"favors": 0,
				"id": 2351,
				"images": [
					{
						"created": 1480317529000,
						"height": 384,
						"id": 4141,
						"origin": "/store/origin/2016/1128/2815184902hw.png",
						"preview": "/store/thumbs/2016/1128/28151849j3im.png",
						"targetId": 2351,
						"width": 216
					}, {
						"created": 1480317529000,
						"height": 384,
						"id": 4142,
						"origin": "/store/origin/2016/1128/281518491r7n.png",
						"preview": "/store/thumbs/2016/1128/2815184958kl.png",
						"targetId": 2351,
						"width": 216
					}, {
						"created": 1480317529000,
						"height": 384,
						"id": 4143,
						"origin": "/store/origin/2016/1128/281518496x24.png",
						"preview": "/store/thumbs/2016/1128/2815184941f5.png",
						"targetId": 2351,
						"width": 216
					}, {
						"created": 1480317529000,
						"height": 384,
						"id": 4144,
						"origin": "/store/origin/2016/1128/28151849tl6n.png",
						"preview": "/store/thumbs/2016/1128/28151849g7oo.png",
						"targetId": 2351,
						"width": 216
					}, {
						"created": 1480317529000,
						"height": 384,
						"id": 4145,
						"origin": "/store/origin/2016/1128/28151849w6rn.png",
						"preview": "/store/thumbs/2016/1128/28151849zjix.png",
						"targetId": 2351,
						"width": 216
					}, {
						"created": 1480317529000,
						"height": 384,
						"id": 4146,
						"origin": "/store/origin/2016/1128/28151849xufq.png",
						"preview": "/store/thumbs/2016/1128/28151849kdrq.png",
						"targetId": 2351,
						"width": 216
					}, {
						"created": 1480317529000,
						"height": 384,
						"id": 4147,
						"origin": "/store/origin/2016/1128/28151849dx9u.png",
						"preview": "/store/thumbs/2016/1128/281518494v6y.png",
						"targetId": 2351,
						"width": 216
					}, {
						"created": 1480317529000,
						"height": 384,
						"id": 4148,
						"origin": "/store/origin/2016/1128/28151849uigw.png",
						"preview": "/store/thumbs/2016/1128/28151849zt7m.png",
						"targetId": 2351,
						"width": 216
					}
				],
				"keyList": [],
				"lat": 30.6569,
				"leaseCount": 0,
				"lendMode": 0,
				"lon": 114.15,
				"name": "白金3lol超多限定皮肤便宜出租",
				"price": 2,
				"priceMode": 1,
				"quantity": 1,
				"remain": 1,
				"status": 0,
				"tags": [
					{
						"created": "2016-05-10 11:36:31",
						"grayIcon": "/store/thumbs/2016/0511/11112600ewl7.png",
						"icon": "/store/thumbs/2016/0511/11112600h3yy.png",
						"id": 3,
						"name": "休闲游戏"
					}
				],
				"user": {
					"avatar": "/store/ava/251/4/0/0.jpg?t=1480316932000",
					"avatar80": "/store/ava/251/4/0/80.jpg?t=1480316932000",
					"birthday": "1990-01-01",
					"borrowScale": 0,
					"borrowScaleAVG": 5,
					"borrowTimes": 0,
					"city": "",
					"cityId": 0,
					"created": "2016-11-28 15:08:52",
					"gender": 1,
					"id": 4239,
					"invite": 0,
					"lat": 0,
					"lendScale": 0,
					"lendScaleAVG": 5,
					"lendTimes": 0,
					"lon": 0,
					"mobile": "15072472993",
					"nickname": "一半",
					"platform": 0,
					"signature": "",
					"status": 0,
					"studentStatus": 0,
					"updated": "2016-11-28 15:08:52",
					"zhimaStatus": 0
				},
				"weight": 0
			}, {
				"active": 0,
				"address": "天翼手机卖场\n中国湖北省黄石市黄石港区磁湖路11号",
				"approveStatus": 0,
				"box": 1,
				"commentCount": 0,
				"created": "2016-10-04 20:20:25",
				"deleted": 0,
				"deposit": 800,
				"description": "无人机出租 三电 背包齐全 可教飞行 只租本地",
				"favor": false,
				"favors": 0,
				"id": 1896,
				"images": [
					{
						"created": 1475583625000,
						"height": 1440,
						"id": 3318,
						"origin": "/store/origin/2016/1004/04202024x191.jpg",
						"preview": "/store/thumbs/2016/1004/04202024pjjj.jpg",
						"targetId": 1896,
						"width": 1920
					}, {
						"created": 1475583625000,
						"height": 576,
						"id": 3319,
						"origin": "/store/origin/2016/1004/04202025h85f.jpg",
						"preview": "/store/thumbs/2016/1004/04202025c3t4.jpg",
						"targetId": 1896,
						"width": 324
					}, {
						"created": 1475583625000,
						"height": 576,
						"id": 3320,
						"origin": "/store/origin/2016/1004/042020252k9j.jpg",
						"preview": "/store/thumbs/2016/1004/04202025rogb.jpg",
						"targetId": 1896,
						"width": 324
					}, {
						"created": 1475583625000,
						"height": 720,
						"id": 3321,
						"origin": "/store/origin/2016/1004/04202025ri6c.jpg",
						"preview": "/store/thumbs/2016/1004/042020252rhf.jpg",
						"targetId": 1896,
						"width": 960
					}
				],
				"keyList": [
					"无人机"
				],
				"lat": 30.2324,
				"leaseCount": 0,
				"lendMode": 0,
				"lon": 115.07,
				"name": "大疆精灵4 航拍无人机",
				"price": 180,
				"priceMode": 2,
				"quantity": 1,
				"remain": 1,
				"searchKey": "无人机",
				"status": 0,
				"tags": [
					{
						"created": "2016-05-10 11:36:31",
						"grayIcon": "/store/thumbs/2016/0511/11112600ewl7.png",
						"icon": "/store/thumbs/2016/0511/11112600h3yy.png",
						"id": 3,
						"name": "休闲游戏"
					}, {
						"created": "2016-05-10 11:37:23",
						"grayIcon": "/store/thumbs/2016/0511/111124215k4v.png",
						"icon": "/store/thumbs/2016/0511/11112421lugt.png",
						"id": 9,
						"name": "电子数码"
					}
				],
				"user": {
					"avatar": "/store/ava/661/2/0/0.jpg?t=1475583360000",
					"avatar80": "/store/ava/661/2/0/80.jpg?t=1475583360000",
					"birthday": "1990-01-01",
					"borrowScale": 0,
					"borrowScaleAVG": 5,
					"borrowTimes": 0,
					"city": "",
					"cityId": 0,
					"created": "2016-10-04 20:15:57",
					"gender": 1,
					"id": 2655,
					"invite": 0,
					"lat": 0,
					"lendScale": 0,
					"lendScaleAVG": 5,
					"lendTimes": 0,
					"lon": 0,
					"mobile": "18772285015",
					"nickname": "和。。宝猪",
					"platform": 0,
					"signature": "",
					"status": 0,
					"studentStatus": 0,
					"updated": "2016-10-04 20:16:00",
					"zhimaStatus": 0
				},
				"weight": 0
			}, {
				"active": 0,
				"address": "孝感市孝南区城站路泰阳城小区",
				"approveStatus": 0,
				"box": 1,
				"commentCount": 0,
				"created": "2017-01-10 04:52:37",
				"deleted": 0,
				"deposit": 500,
				"description": "可打印单据，如快递单，发票，出库单等。",
				"favor": false,
				"favors": 0,
				"id": 2680,
				"images": [
					{
						"created": 1483995157000,
						"height": 3264,
						"id": 5254,
						"origin": "/store/origin/2017/0110/10045237lc3x.jpg",
						"preview": "/store/thumbs/2017/0110/100452372y2q.jpg",
						"targetId": 2680,
						"width": 2448
					}, {
						"created": 1483995157000,
						"height": 2448,
						"id": 5255,
						"origin": "/store/origin/2017/0110/10045238srm4.jpg",
						"preview": "/store/thumbs/2017/0110/10045238atpu.jpg",
						"targetId": 2680,
						"width": 3264
					}
				],
				"keyList": [],
				"lat": 30.9441,
				"leaseCount": 0,
				"lendMode": 0,
				"lon": 113.932,
				"name": "针式票据打印机",
				"price": 5,
				"priceMode": 2,
				"quantity": 2,
				"remain": 2,
				"status": 0,
				"tags": [
					{
						"created": "2016-05-10 11:37:23",
						"grayIcon": "/store/thumbs/2016/0511/111124215k4v.png",
						"icon": "/store/thumbs/2016/0511/11112421lugt.png",
						"id": 9,
						"name": "电子数码"
					}
				],
				"user": {
					"avatar": "/store/ava/776/6/0/0.jpg?t=1483996564000",
					"avatar80": "/store/ava/776/6/0/80.jpg?t=1483996564000",
					"birthday": "1992-12-25",
					"borrowScale": 0,
					"borrowScaleAVG": 5,
					"borrowTimes": 0,
					"city": "",
					"cityId": 0,
					"created": "2017-01-10 04:44:18",
					"gender": 1,
					"id": 6758,
					"invite": 0,
					"lat": 0,
					"lendScale": 0,
					"lendScaleAVG": 5,
					"lendTimes": 0,
					"lon": 0,
					"mobile": "17771211610",
					"nickname": "孝感亿汇电脑17771211610",
					"platform": 0,
					"signature": "",
					"status": 0,
					"studentStatus": 0,
					"updated": "2017-01-10 05:16:04",
					"zhimaDate": "2017-01-10",
					"zhimaStatus": 1
				},
				"weight": 0
			}, {
				"active": 0,
				"address": "雨花韶山路雨花亭正十字路口西北角，现新建路阳光小镇",
				"approveStatus": 0,
				"box": 1,
				"commentCount": 0,
				"created": "2016-10-25 06:58:41",
				"deleted": 0,
				"deposit": 100,
				"description": "长沙星城演出服租赁公司\n地址：长沙市雨花区雨花亭阳光小镇B座404室（南洋宾馆楼上）\n联系电话：15388081299（微信同号）\n提供高档晚礼服、西装、话剧服装、古代服装、舞蹈服装、礼仪服装、异国服装、玩偶系列出租。款式众多，价格实惠，服装整洁干净，服务热情周到。",
				"favor": false,
				"favors": 4,
				"id": 2034,
				"images": [
					{
						"created": 1477349921000,
						"height": 400,
						"id": 3571,
						"origin": "/store/origin/2016/1025/25065840rxrz.jpg",
						"preview": "/store/thumbs/2016/1025/25065840j8it.jpg",
						"targetId": 2034,
						"width": 600
					}, {
						"created": 1477349921000,
						"height": 1000,
						"id": 3572,
						"origin": "/store/origin/2016/1025/250658408ohb.jpg",
						"preview": "/store/thumbs/2016/1025/25065840baat.jpg",
						"targetId": 2034,
						"width": 1000
					}, {
						"created": 1477349921000,
						"height": 403,
						"id": 3573,
						"origin": "/store/origin/2016/1025/25065840urb8.jpg",
						"preview": "/store/thumbs/2016/1025/25065840hoes.jpg",
						"targetId": 2034,
						"width": 393
					}, {
						"created": 1477349921000,
						"height": 950,
						"id": 3574,
						"origin": "/store/origin/2016/1025/25065840ksyw.jpg",
						"preview": "/store/thumbs/2016/1025/25065840hyn4.jpg",
						"targetId": 2034,
						"width": 1024
					}, {
						"created": 1477349921000,
						"height": 750,
						"id": 3575,
						"origin": "/store/origin/2016/1025/2506584022f2.jpg",
						"preview": "/store/thumbs/2016/1025/2506584002d0.jpg",
						"targetId": 2034,
						"width": 750
					}, {
						"created": 1477349921000,
						"height": 1000,
						"id": 3576,
						"origin": "/store/origin/2016/1025/25065841bamb.jpg",
						"preview": "/store/thumbs/2016/1025/25065841qs7a.jpg",
						"targetId": 2034,
						"width": 1000
					}, {
						"created": 1477349921000,
						"height": 800,
						"id": 3577,
						"origin": "/store/origin/2016/1025/25065841naet.jpg",
						"preview": "/store/thumbs/2016/1025/25065841g9iz.jpg",
						"targetId": 2034,
						"width": 640
					}, {
						"created": 1477349921000,
						"height": 800,
						"id": 3578,
						"origin": "/store/origin/2016/1025/25065841xcib.jpg",
						"preview": "/store/thumbs/2016/1025/250658412q3k.jpg",
						"targetId": 2034,
						"width": 800
					}
				],
				"keyList": [],
				"lat": 28.1615,
				"leaseCount": 0,
				"lendMode": 2,
				"lon": 113,
				"name": "万圣节服装、cosplay服装出租",
				"price": 50,
				"priceMode": 2,
				"quantity": 50,
				"remain": 51,
				"status": 0,
				"tags": [
					{
						"created": "2016-05-10 11:36:31",
						"grayIcon": "/store/thumbs/2016/0511/11112600ewl7.png",
						"icon": "/store/thumbs/2016/0511/11112600h3yy.png",
						"id": 3,
						"name": "休闲游戏"
					}, {
						"created": "2016-05-10 11:36:58",
						"grayIcon": "/store/thumbs/2016/0511/11112501a52j.png",
						"icon": "/store/thumbs/2016/0511/11112501me4y.png",
						"id": 6,
						"name": "才艺技能"
					}, {
						"created": "2016-05-10 11:37:15",
						"grayIcon": "/store/thumbs/2016/0511/111124420d1m.png",
						"icon": "/store/thumbs/2016/0511/11112442oq0r.png",
						"id": 8,
						"name": "道具服装"
					}
				],
				"user": {
					"avatar": "/store/ava/404/3/0/0.jpg?t=1477349480000",
					"avatar80": "/store/ava/404/3/0/80.jpg?t=1477349480000",
					"birthday": "1990-01-01",
					"borrowScale": 0,
					"borrowScaleAVG": 5,
					"borrowTimes": 0,
					"city": "",
					"cityId": 0,
					"created": "2016-10-25 06:51:20",
					"gender": 2,
					"id": 3395,
					"invite": 0,
					"lat": 0,
					"lendScale": 0,
					"lendScaleAVG": 5,
					"lendTimes": 0,
					"lon": 0,
					"mobile": "18670725636",
					"nickname": "长沙星城演出服租赁公司",
					"platform": 0,
					"signature": "",
					"status": 0,
					"studentStatus": 0,
					"updated": "2016-10-25 06:51:20",
					"zhimaStatus": 0
				},
				"weight": 0
			}, {
				"active": 0,
				"address": "雨花韶山路雨花亭正十字路口西北角，现新建路阳光小镇",
				"approveStatus": 0,
				"box": 1,
				"commentCount": 0,
				"created": "2016-10-25 07:03:30",
				"deleted": 0,
				"deposit": 300,
				"description": "长沙星城演出服租赁公司\n地址：长沙市雨花区雨花亭阳光小镇B座404室（南洋宾馆楼上）\n联系电话：15388081299（微信同号）\n提供高档晚礼服、西装、话剧服装、古代服装、舞蹈服装、礼仪服装、异国服装、玩偶系列出租。款式众多，价格实惠，服装整洁干净，服务热情周到。",
				"favor": false,
				"favors": 1,
				"id": 2035,
				"images": [
					{
						"created": 1477350210000,
						"height": 640,
						"id": 3579,
						"origin": "/store/origin/2016/1025/25070330q95t.jpg",
						"preview": "/store/thumbs/2016/1025/25070330uwft.jpg",
						"targetId": 2035,
						"width": 854
					}, {
						"created": 1477350210000,
						"height": 1920,
						"id": 3580,
						"origin": "/store/origin/2016/1025/25070330b03e.jpg",
						"preview": "/store/thumbs/2016/1025/250703306zpi.jpg",
						"targetId": 2035,
						"width": 1080
					}, {
						"created": 1477350210000,
						"height": 1920,
						"id": 3581,
						"origin": "/store/origin/2016/1025/250703302ttn.jpg",
						"preview": "/store/thumbs/2016/1025/25070330ak4j.jpg",
						"targetId": 2035,
						"width": 1080
					}, {
						"created": 1477350210000,
						"height": 1920,
						"id": 3582,
						"origin": "/store/origin/2016/1025/25070330qwoo.jpg",
						"preview": "/store/thumbs/2016/1025/25070330315t.jpg",
						"targetId": 2035,
						"width": 1080
					}, {
						"created": 1477350210000,
						"height": 1920,
						"id": 3583,
						"origin": "/store/origin/2016/1025/25070330yqnv.jpg",
						"preview": "/store/thumbs/2016/1025/25070330kya8.jpg",
						"targetId": 2035,
						"width": 1080
					}, {
						"created": 1477350210000,
						"height": 1920,
						"id": 3584,
						"origin": "/store/origin/2016/1025/250703319gwe.jpg",
						"preview": "/store/thumbs/2016/1025/25070331hz8k.jpg",
						"targetId": 2035,
						"width": 1080
					}, {
						"created": 1477350210000,
						"height": 1920,
						"id": 3585,
						"origin": "/store/origin/2016/1025/250703314ca6.jpg",
						"preview": "/store/thumbs/2016/1025/25070331q64q.jpg",
						"targetId": 2035,
						"width": 1080
					}, {
						"created": 1477350210000,
						"height": 1920,
						"id": 3586,
						"origin": "/store/origin/2016/1025/25070331ah10.jpg",
						"preview": "/store/thumbs/2016/1025/25070331sv1i.jpg",
						"targetId": 2035,
						"width": 1080
					}
				],
				"keyList": [],
				"lat": 28.1615,
				"leaseCount": 0,
				"lendMode": 2,
				"lon": 113,
				"name": "各种玩偶、行走人偶出租",
				"price": 80,
				"priceMode": 2,
				"quantity": 50,
				"remain": 50,
				"status": 0,
				"tags": [
					{
						"created": "2016-05-10 11:36:31",
						"grayIcon": "/store/thumbs/2016/0511/11112600ewl7.png",
						"icon": "/store/thumbs/2016/0511/11112600h3yy.png",
						"id": 3,
						"name": "休闲游戏"
					}, {
						"created": "2016-05-10 11:36:58",
						"grayIcon": "/store/thumbs/2016/0511/11112501a52j.png",
						"icon": "/store/thumbs/2016/0511/11112501me4y.png",
						"id": 6,
						"name": "才艺技能"
					}, {
						"created": "2016-05-10 11:37:15",
						"grayIcon": "/store/thumbs/2016/0511/111124420d1m.png",
						"icon": "/store/thumbs/2016/0511/11112442oq0r.png",
						"id": 8,
						"name": "道具服装"
					}
				],
				"user": {
					"avatar": "/store/ava/404/3/0/0.jpg?t=1477349480000",
					"avatar80": "/store/ava/404/3/0/80.jpg?t=1477349480000",
					"birthday": "1990-01-01",
					"borrowScale": 0,
					"borrowScaleAVG": 5,
					"borrowTimes": 0,
					"city": "",
					"cityId": 0,
					"created": "2016-10-25 06:51:20",
					"gender": 2,
					"id": 3395,
					"invite": 0,
					"lat": 0,
					"lendScale": 0,
					"lendScaleAVG": 5,
					"lendTimes": 0,
					"lon": 0,
					"mobile": "18670725636",
					"nickname": "长沙星城演出服租赁公司",
					"platform": 0,
					"signature": "",
					"status": 0,
					"studentStatus": 0,
					"updated": "2016-10-25 06:51:20",
					"zhimaStatus": 0
				},
				"weight": 0
			}
		],
		"first": true,
		"last": false,
		"number": 0,
		"numberOfElements": 10,
		"size": 10,
		"totalElements": 1260,
		"totalPages": 126
	},
	"message": "操作成功"
} 