{
	"code": 0,
	"data": {
		"content": [
			{
				"active": 0,
				"address": "北京市 东城区崇文门西花市大街8号(新世界商场向东150米)新景家园",
				"approveStatus": 0,
				"box": 1,
				"commentCount": 0,
				"created": "2017-03-23 13:24:04",
				"deleted": 0,
				"deposit": 10000,
				"description": "租期价格参见图片价目表",
				"favor": false,
				"favors": 2,
				"id": 2905,
				"images": [
					{
						"created": 1490246644000,
						"height": 700,
						"id": 6339,
						"origin": "/store/origin/2017/0323/23132403zv46.jpg",
						"preview": "/store/thumbs/2017/0323/23132403ah7n.jpg",
						"targetId": 2905,
						"width": 700
					}, {
						"created": 1490246644000,
						"height": 500,
						"id": 6340,
						"origin": "/store/origin/2017/0323/23132403smif.jpg",
						"preview": "/store/thumbs/2017/0323/231324035klg.jpg",
						"targetId": 2905,
						"width": 750
					}, {
						"created": 1490246644000,
						"height": 1012,
						"id": 6341,
						"origin": "/store/origin/2017/0323/231324036yhv.jpg",
						"preview": "/store/thumbs/2017/0323/2313240340cq.jpg",
						"targetId": 2905,
						"width": 1280
					}, {
						"created": 1490246644000,
						"height": 2592,
						"id": 6342,
						"origin": "/store/origin/2017/0323/23132404yh64.jpg",
						"preview": "/store/thumbs/2017/0323/231324045luo.jpg",
						"targetId": 2905,
						"width": 3888
					}
				],
				"keyList": [],
				"lat": 0,
				"leaseCount": 0,
				"lendMode": 2,
				"lon": 0,
				"name": "大疆 无人机 精灵4Pro DJI Phantom4 Pro",
				"price": 180,
				"priceMode": 2,
				"quantity": 1,
				"remain": 1,
				"status": 0,
				"tags": [
					{
						"created": "2016-05-10 11:36:31",
						"grayIcon": "/store/thumbs/2016/0511/11112600ewl7.png",
						"icon": "/store/thumbs/2016/0511/11112600h3yy.png",
						"id": 3,
						"name": "休闲游戏"
					}
				],
				"user": {
					"avatar": "/store/ava/336/14/0/0.jpg?t=1490245955000",
					"avatar80": "/store/ava/336/14/0/80.jpg?t=1490245955000",
					"birthday": "1989-08-19",
					"borrowScale": 0,
					"borrowScaleAVG": 5,
					"borrowTimes": 0,
					"city": "北京市 东城区",
					"cityId": 0,
					"created": "2017-03-23 13:04:54",
					"gender": 1,
					"id": 14294,
					"invite": 0,
					"lat": 0,
					"lendScale": 0,
					"lendScaleAVG": 5,
					"lendTimes": 0,
					"lon": 0,
					"mobile": "15210001046",
					"nickname": "灵知科技",
					"platform": 0,
					"signature": "诚信经营，口碑服务，北京二环内唯一无人机租赁商",
					"status": 0,
					"studentStatus": 0,
					"updated": "2017-03-23 13:12:35",
					"zhimaDate": "2017-03-23",
					"zhimaStatus": 1
				},
				"weight": 508
			}, {
				"active": 0,
				"address": "首城国际b区\n北京市朝阳区广渠路",
				"approveStatus": 0,
				"box": 1,
				"commentCount": 0,
				"created": "2016-12-03 16:21:35",
				"deleted": 0,
				"deposit": 13000,
				"description": "魔借特惠：95折\n三天起租：320元\n续租：55元/天",
				"favor": false,
				"favors": 0,
				"id": 2438,
				"images": [
					{
						"created": 1480753295000,
						"height": 367,
						"id": 4298,
						"origin": "/store/origin/2016/1203/03162134v2jh.jpg",
						"preview": "/store/thumbs/2016/1203/03162134vnkx.jpg",
						"targetId": 2438,
						"width": 550
					}
				],
				"keyList": [],
				"lat": 39.8971,
				"leaseCount": 0,
				"lendMode": 2,
				"lon": 116.476,
				"name": "宾得K1机身",
				"price": 55,
				"priceMode": 2,
				"quantity": 1,
				"remain": 1,
				"status": 0,
				"tags": [
					{
						"created": "2016-05-10 11:37:23",
						"grayIcon": "/store/thumbs/2016/0511/111124215k4v.png",
						"icon": "/store/thumbs/2016/0511/11112421lugt.png",
						"id": 9,
						"name": "电子数码"
					}
				],
				"user": {
					"avatar": "/store/ava/944/0/0/0.jpg?t=1481209270000",
					"avatar80": "/store/ava/944/0/0/80.jpg?t=1481209270000",
					"birthday": "2013-10-20",
					"borrowScale": 55,
					"borrowScaleAVG": 5,
					"borrowTimes": 11,
					"city": "",
					"cityId": 0,
					"created": "2016-08-01 14:40:34",
					"gender": 1,
					"id": 944,
					"invite": 0,
					"lat": 0,
					"lendScale": 0,
					"lendScaleAVG": 5,
					"lendTimes": 0,
					"lon": 0,
					"mobile": "17051014949",
					"nickname": "一拍机合",
					"platform": 0,
					"signature": "行者无疆",
					"status": 0,
					"studentStatus": 0,
					"updated": "2016-12-08 23:01:10",
					"zhimaDate": "2016-12-08",
					"zhimaStatus": 1
				},
				"weight": 507
			}, {
				"active": 0,
				"address": "北京市 东城区崇文门西花市大街8号(新世界商场向东150米)新景家园",
				"approveStatus": 0,
				"box": 1,
				"commentCount": 0,
				"created": "2017-03-23 13:26:02",
				"deleted": 0,
				"deposit": 3000,
				"description": "租期价格参见图片价目表",
				"favor": false,
				"favors": 4,
				"id": 2906,
				"images": [
					{
						"created": 1490246762000,
						"height": 700,
						"id": 6343,
						"origin": "/store/origin/2017/0323/23132601wm5g.jpg",
						"preview": "/store/thumbs/2017/0323/23132601t4me.jpg",
						"targetId": 2906,
						"width": 700
					}, {
						"created": 1490246762000,
						"height": 500,
						"id": 6344,
						"origin": "/store/origin/2017/0323/23132601kxnc.jpg",
						"preview": "/store/thumbs/2017/0323/23132601rgzn.jpg",
						"targetId": 2906,
						"width": 750
					}, {
						"created": 1490246762000,
						"height": 1012,
						"id": 6345,
						"origin": "/store/origin/2017/0323/23132601cfxn.jpg",
						"preview": "/store/thumbs/2017/0323/23132601v9t3.jpg",
						"targetId": 2906,
						"width": 1280
					}
				],
				"keyList": [],
				"lat": 0,
				"leaseCount": 0,
				"lendMode": 2,
				"lon": 0,
				"name": "GoPro HERO Black 5 防水相机 潜水相机 运动相机",
				"price": 30,
				"priceMode": 2,
				"quantity": 1,
				"remain": 1,
				"status": 0,
				"tags": [
					{
						"created": "2016-05-10 11:36:24",
						"grayIcon": "/store/thumbs/2016/0511/111126122esb.png",
						"icon": "/store/thumbs/2016/0511/11112612run5.png",
						"id": 2,
						"name": "精致生活"
					}
				],
				"user": {
					"avatar": "/store/ava/336/14/0/0.jpg?t=1490245955000",
					"avatar80": "/store/ava/336/14/0/80.jpg?t=1490245955000",
					"birthday": "1989-08-19",
					"borrowScale": 0,
					"borrowScaleAVG": 5,
					"borrowTimes": 0,
					"city": "北京市 东城区",
					"cityId": 0,
					"created": "2017-03-23 13:04:54",
					"gender": 1,
					"id": 14294,
					"invite": 0,
					"lat": 0,
					"lendScale": 0,
					"lendScaleAVG": 5,
					"lendTimes": 0,
					"lon": 0,
					"mobile": "15210001046",
					"nickname": "灵知科技",
					"platform": 0,
					"signature": "诚信经营，口碑服务，北京二环内唯一无人机租赁商",
					"status": 0,
					"studentStatus": 0,
					"updated": "2017-03-23 13:12:35",
					"zhimaDate": "2017-03-23",
					"zhimaStatus": 1
				},
				"weight": 504
			}, {
				"active": 0,
				"address": "山东省",
				"approveStatus": 0,
				"box": 1,
				"commentCount": 0,
				"created": "2017-01-05 18:16:06",
				"deleted": 0,
				"deposit": 2800,
				"description": "Gopro Hero5 Black/黑狗5 水下相机出租\r\n全新Gopro5 黑色版，画质更好且使用简便，防水更安全！自带十米防水，无需防水壳。内置触摸屏，语音控制自拍，视频带防抖功能，4K视频以及RAW格式照片！",
				"favor": false,
				"favors": 5,
				"id": 2620,
				"images": [
					{
						"created": 1483611366000,
						"height": 360,
						"id": 4924,
						"origin": "/store/origin/2017/0105/05181605qz46.jpg",
						"preview": "/store/thumbs/2017/0105/05181605n9ol.jpg",
						"targetId": 2620,
						"width": 640
					}, {
						"created": 1483611366000,
						"height": 379,
						"id": 4925,
						"origin": "/store/origin/2017/0105/05181605bkip.png",
						"preview": "/store/thumbs/2017/0105/05181605r4q4.png",
						"targetId": 2620,
						"width": 727
					}, {
						"created": 1483860006000,
						"height": 356,
						"id": 5160,
						"origin": "/store/origin/2017/0108/08152006k8w2.png",
						"preview": "/store/thumbs/2017/0108/081520068bfa.png",
						"targetId": 2620,
						"width": 725
					}, {
						"created": 1483860012000,
						"height": 331,
						"id": 5161,
						"origin": "/store/origin/2017/0108/08152012tz2s.png",
						"preview": "/store/thumbs/2017/0108/08152012vd9t.png",
						"targetId": 2620,
						"width": 726
					}
				],
				"keyList": [
					"gopro"
				],
				"lat": 36.6744,
				"leaseCount": 1,
				"lendMode": 1,
				"lon": 117.027,
				"name": "Gopro5水下相机",
				"price": 30,
				"priceMode": 2,
				"quantity": 100,
				"remain": 100,
				"searchKey": "gopro",
				"status": 0,
				"tags": [
					{
						"created": "2016-05-10 11:36:39",
						"grayIcon": "/store/thumbs/2016/0511/111125463b1y.png",
						"icon": "/store/thumbs/2016/0511/11112546oqzr.png",
						"id": 4,
						"name": "户外远足"
					}, {
						"created": "2016-05-10 11:37:23",
						"grayIcon": "/store/thumbs/2016/0511/111124215k4v.png",
						"icon": "/store/thumbs/2016/0511/11112421lugt.png",
						"id": 9,
						"name": "电子数码"
					}
				],
				"user": {
					"avatar": "/store/ava/195/4/0/0.jpg?t=1483610332000",
					"avatar80": "/store/ava/195/4/0/80.jpg?t=1483610332000",
					"birthday": "1990-01-01",
					"borrowScale": 10,
					"borrowScaleAVG": 5,
					"borrowTimes": 2,
					"city": "",
					"cityId": 0,
					"created": "2016-11-26 14:18:36",
					"gender": 1,
					"id": 4183,
					"invite": 0,
					"lat": 0,
					"lendScale": 5,
					"lendScaleAVG": 5,
					"lendTimes": 1,
					"lon": 0,
					"mobile": "18310052565",
					"nickname": "实在山东人",
					"platform": 0,
					"signature": "",
					"status": 0,
					"studentStatus": 0,
					"updated": "2017-01-05 17:58:52",
					"zhimaDate": "2016-12-08",
					"zhimaStatus": 1
				},
				"weight": 503
			}, {
				"active": 0,
				"address": "浦东新区南泉北路168号(近栖霞路)上海电视大学新世界集团分校",
				"approveStatus": 0,
				"box": 1,
				"commentCount": 0,
				"created": "2016-09-22 00:32:51",
				"deleted": 0,
				"deposit": 3079,
				"description": "无论是宝宝蹒跚学步，或是校园的青春印迹，还是婚姻殿堂的甜蜜瞬间，gear 360全景相机为未来保留时光的记忆。\n快来拍摄属于自己的360度全景视频吧，更可搭配gear vr享受身临其境的美好体验～\n打开手机淘宝扫描图片二维码，或直接搜索店铺“vr畅租”，进一步了解商品详情。\n租金：3天114元，4天130元，5天145元，租得越久越便宜！\n续租更是只要17元/天。\n优惠活动：1、十一期间半价；2、收藏店铺立减5元，关注公众号“vr畅租”立减10元！",
				"favor": false,
				"favors": 2,
				"id": 1823,
				"images": [
					{
						"created": 1474475571000,
						"height": 2448,
						"id": 3124,
						"origin": "/store/origin/2016/0922/220032514p11.jpg",
						"preview": "/store/thumbs/2016/0922/22003251hias.jpg",
						"targetId": 1823,
						"width": 3264
					}, {
						"created": 1474475571000,
						"height": 2448,
						"id": 3125,
						"origin": "/store/origin/2016/0922/22003252incs.jpg",
						"preview": "/store/thumbs/2016/0922/22003252xe9s.jpg",
						"targetId": 1823,
						"width": 3264
					}, {
						"created": 1474475571000,
						"height": 2448,
						"id": 3126,
						"origin": "/store/origin/2016/0922/22003252mu04.jpg",
						"preview": "/store/thumbs/2016/0922/22003252lzra.jpg",
						"targetId": 1823,
						"width": 3264
					}, {
						"created": 1474475571000,
						"height": 2448,
						"id": 3127,
						"origin": "/store/origin/2016/0922/220032538wr8.jpg",
						"preview": "/store/thumbs/2016/0922/22003253cd7w.jpg",
						"targetId": 1823,
						"width": 3264
					}, {
						"created": 1474475571000,
						"height": 2448,
						"id": 3128,
						"origin": "/store/origin/2016/0922/22003254obhn.jpg",
						"preview": "/store/thumbs/2016/0922/22003254p6ar.jpg",
						"targetId": 1823,
						"width": 3264
					}, {
						"created": 1474475571000,
						"height": 2448,
						"id": 3129,
						"origin": "/store/origin/2016/0922/22003254gyd2.jpg",
						"preview": "/store/thumbs/2016/0922/2200325425q8.jpg",
						"targetId": 1823,
						"width": 3264
					}, {
						"created": 1474475571000,
						"height": 2448,
						"id": 3130,
						"origin": "/store/origin/2016/0922/22003255xgtt.jpg",
						"preview": "/store/thumbs/2016/0922/22003255hl6c.jpg",
						"targetId": 1823,
						"width": 3264
					}, {
						"created": 1474475571000,
						"height": 200,
						"id": 3131,
						"origin": "/store/origin/2016/0922/22003256mma7.jpg",
						"preview": "/store/thumbs/2016/0922/22003256epsd.jpg",
						"targetId": 1823,
						"width": 200
					}
				],
				"keyList": [],
				"lat": 31.2411,
				"leaseCount": 0,
				"lendMode": 1,
				"lon": 121.527,
				"name": "低价出租 十一半价 gear 360全景相机 高清4k ",
				"price": 17,
				"priceMode": 2,
				"quantity": 5,
				"remain": 5,
				"status": 0,
				"tags": [
					{
						"created": "2016-05-10 11:36:24",
						"grayIcon": "/store/thumbs/2016/0511/111126122esb.png",
						"icon": "/store/thumbs/2016/0511/11112612run5.png",
						"id": 2,
						"name": "精致生活"
					}, {
						"created": "2016-05-10 11:36:39",
						"grayIcon": "/store/thumbs/2016/0511/111125463b1y.png",
						"icon": "/store/thumbs/2016/0511/11112546oqzr.png",
						"id": 4,
						"name": "户外远足"
					}, {
						"created": "2016-05-10 11:37:23",
						"grayIcon": "/store/thumbs/2016/0511/111124215k4v.png",
						"icon": "/store/thumbs/2016/0511/11112421lugt.png",
						"id": 9,
						"name": "电子数码"
					}
				],
				"user": {
					"avatar": "/store/ava/757/1/0/0.jpg?t=1473299594000",
					"avatar80": "/store/ava/757/1/0/80.jpg?t=1473299594000",
					"birthday": "1990-01-01",
					"borrowScale": 5,
					"borrowScaleAVG": 5,
					"borrowTimes": 1,
					"city": "",
					"cityId": 0,
					"created": "2016-09-08 09:53:14",
					"gender": 1,
					"id": 1754,
					"invite": 0,
					"lat": 0,
					"lendScale": 0,
					"lendScaleAVG": 5,
					"lendTimes": 0,
					"lon": 0,
					"mobile": "18918371977",
					"nickname": "VR畅租",
					"platform": 0,
					"signature": "",
					"status": 0,
					"studentStatus": 0,
					"updated": "2016-09-08 09:53:14",
					"zhimaDate": "2016-12-23",
					"zhimaStatus": 1
				},
				"weight": 502
			}, {
				"active": 0,
				"address": "北京市 东城区崇文门西花市大街8号(新世界商场向东150米)新景家园",
				"approveStatus": 0,
				"box": 1,
				"commentCount": 0,
				"created": "2017-03-23 13:27:36",
				"deleted": 0,
				"deposit": 3000,
				"description": "租期价格参见图片价目表",
				"favor": false,
				"favors": 3,
				"id": 2907,
				"images": [
					{
						"created": 1490246856000,
						"height": 700,
						"id": 6346,
						"origin": "/store/origin/2017/0323/23132735qi4g.jpg",
						"preview": "/store/thumbs/2017/0323/23132735b96m.jpg",
						"targetId": 2907,
						"width": 700
					}, {
						"created": 1490246856000,
						"height": 500,
						"id": 6347,
						"origin": "/store/origin/2017/0323/231327356vs2.jpg",
						"preview": "/store/thumbs/2017/0323/23132735n3j2.jpg",
						"targetId": 2907,
						"width": 750
					}, {
						"created": 1490246856000,
						"height": 1012,
						"id": 6348,
						"origin": "/store/origin/2017/0323/23132735t4cd.jpg",
						"preview": "/store/thumbs/2017/0323/23132735d325.jpg",
						"targetId": 2907,
						"width": 1280
					}
				],
				"keyList": [],
				"lat": 0,
				"leaseCount": 0,
				"lendMode": 2,
				"lon": 0,
				"name": "大疆 灵眸 OSMO 智能云台 手持云台",
				"price": 49,
				"priceMode": 2,
				"quantity": 1,
				"remain": 1,
				"status": 0,
				"tags": [
					{
						"created": "2016-05-10 11:36:58",
						"grayIcon": "/store/thumbs/2016/0511/11112501a52j.png",
						"icon": "/store/thumbs/2016/0511/11112501me4y.png",
						"id": 6,
						"name": "才艺技能"
					}
				],
				"user": {
					"avatar": "/store/ava/336/14/0/0.jpg?t=1490245955000",
					"avatar80": "/store/ava/336/14/0/80.jpg?t=1490245955000",
					"birthday": "1989-08-19",
					"borrowScale": 0,
					"borrowScaleAVG": 5,
					"borrowTimes": 0,
					"city": "北京市 东城区",
					"cityId": 0,
					"created": "2017-03-23 13:04:54",
					"gender": 1,
					"id": 14294,
					"invite": 0,
					"lat": 0,
					"lendScale": 0,
					"lendScaleAVG": 5,
					"lendTimes": 0,
					"lon": 0,
					"mobile": "15210001046",
					"nickname": "灵知科技",
					"platform": 0,
					"signature": "诚信经营，口碑服务，北京二环内唯一无人机租赁商",
					"status": 0,
					"studentStatus": 0,
					"updated": "2017-03-23 13:12:35",
					"zhimaDate": "2017-03-23",
					"zhimaStatus": 1
				},
				"weight": 500
			}, {
				"active": 0,
				"address": "首城国际中心\n朝阳区广渠路36号(双井桥东600米)",
				"approveStatus": 0,
				"box": 1,
				"commentCount": 0,
				"created": "2016-09-02 14:15:55",
				"deleted": 0,
				"deposit": 3000,
				"description": "中秋节特惠:租金7折\n邮寄:三天起租:200元\n续租:30元/天\n北京自取（工作时间内9:30-18:30）\n0天:当天取第二天还110元\n1天:当天取第三天还140元\n2天:当天取第四天还170元\n3天:当天取第五天还200元",
				"favor": false,
				"favors": 2,
				"id": 1560,
				"images": [
					{
						"created": 1472797045000,
						"height": 1000,
						"id": 2330,
						"origin": "/store/origin/2016/0902/02141724y4ae.jpeg",
						"preview": "/store/thumbs/2016/0902/02141724mkmy.jpeg",
						"targetId": 1560,
						"width": 1000
					}, {
						"created": 1472797045000,
						"height": 833,
						"id": 2331,
						"origin": "/store/origin/2016/0902/02141724ovln.jpeg",
						"preview": "/store/thumbs/2016/0902/02141724x0rp.jpeg",
						"targetId": 1560,
						"width": 1250
					}, {
						"created": 1472797045000,
						"height": 836,
						"id": 2332,
						"origin": "/store/origin/2016/0902/02141725kdeb.jpeg",
						"preview": "/store/thumbs/2016/0902/021417259lff.jpeg",
						"targetId": 1560,
						"width": 1256
					}, {
						"created": 1472797045000,
						"height": 440,
						"id": 2333,
						"origin": "/store/origin/2016/0902/02141725v4lr.jpeg",
						"preview": "/store/thumbs/2016/0902/02141725u0l8.jpeg",
						"targetId": 1560,
						"width": 440
					}
				],
				"keyList": [
					"索尼相机"
				],
				"lat": 39.8986,
				"leaseCount": 0,
				"lendMode": 1,
				"lon": 116.476,
				"name": "索尼a5100套@一拍机合",
				"price": 35,
				"priceMode": 2,
				"quantity": 8,
				"remain": 8,
				"searchKey": "索尼相机",
				"status": 0,
				"tags": [
					{
						"created": "2016-05-10 11:37:23",
						"grayIcon": "/store/thumbs/2016/0511/111124215k4v.png",
						"icon": "/store/thumbs/2016/0511/11112421lugt.png",
						"id": 9,
						"name": "电子数码"
					}
				],
				"user": {
					"avatar": "/store/ava/944/0/0/0.jpg?t=1481209270000",
					"avatar80": "/store/ava/944/0/0/80.jpg?t=1481209270000",
					"birthday": "2013-10-20",
					"borrowScale": 55,
					"borrowScaleAVG": 5,
					"borrowTimes": 11,
					"city": "",
					"cityId": 0,
					"created": "2016-08-01 14:40:34",
					"gender": 1,
					"id": 944,
					"invite": 0,
					"lat": 0,
					"lendScale": 0,
					"lendScaleAVG": 5,
					"lendTimes": 0,
					"lon": 0,
					"mobile": "17051014949",
					"nickname": "一拍机合",
					"platform": 0,
					"signature": "行者无疆",
					"status": 0,
					"studentStatus": 0,
					"updated": "2016-12-08 23:01:10",
					"zhimaDate": "2016-12-08",
					"zhimaStatus": 1
				},
				"weight": 499
			}, {
				"active": 0,
				"address": "首城国际中心\n朝阳区广渠路36号(双井桥东600米)",
				"approveStatus": 0,
				"box": 1,
				"commentCount": 0,
				"created": "2016-08-27 16:31:40",
				"deleted": 0,
				"deposit": 17500,
				"description": "邮寄:三天起租:500元\n续租:90元/天\n北京自取（工作时间内9:30-18:30）\n0天:当天取第二天还280元\n1天:当天取第三天还350元\n2天:当天取第四天还440元\n3天:当天取第五天还500元",
				"favor": false,
				"favors": 3,
				"id": 1554,
				"images": [
					{
						"created": 1472286700000,
						"height": 1080,
						"id": 2293,
						"origin": "/store/origin/2016/0827/271631403i4o.jpeg",
						"preview": "/store/thumbs/2016/0827/27163140qjw7.jpeg",
						"targetId": 1554,
						"width": 1080
					}, {
						"created": 1472286700000,
						"height": 488,
						"id": 2295,
						"origin": "/store/origin/2016/0827/27163140d18v.jpeg",
						"preview": "/store/thumbs/2016/0827/2716314007d5.jpeg",
						"targetId": 1554,
						"width": 960
					}
				],
				"keyList": [
					"索尼相机"
				],
				"lat": 39.8986,
				"leaseCount": 0,
				"lendMode": 1,
				"lon": 116.476,
				"name": "索尼A7S2@一拍机合",
				"price": 100,
				"priceMode": 2,
				"quantity": 3,
				"remain": 3,
				"searchKey": "索尼相机",
				"status": 0,
				"tags": [
					{
						"created": "2016-05-10 11:37:23",
						"grayIcon": "/store/thumbs/2016/0511/111124215k4v.png",
						"icon": "/store/thumbs/2016/0511/11112421lugt.png",
						"id": 9,
						"name": "电子数码"
					}
				],
				"user": {
					"avatar": "/store/ava/944/0/0/0.jpg?t=1481209270000",
					"avatar80": "/store/ava/944/0/0/80.jpg?t=1481209270000",
					"birthday": "2013-10-20",
					"borrowScale": 55,
					"borrowScaleAVG": 5,
					"borrowTimes": 11,
					"city": "",
					"cityId": 0,
					"created": "2016-08-01 14:40:34",
					"gender": 1,
					"id": 944,
					"invite": 0,
					"lat": 0,
					"lendScale": 0,
					"lendScaleAVG": 5,
					"lendTimes": 0,
					"lon": 0,
					"mobile": "17051014949",
					"nickname": "一拍机合",
					"platform": 0,
					"signature": "行者无疆",
					"status": 0,
					"studentStatus": 0,
					"updated": "2016-12-08 23:01:10",
					"zhimaDate": "2016-12-08",
					"zhimaStatus": 1
				},
				"weight": 497
			}, {
				"active": 0,
				"address": "北京市 东城区崇文门西花市大街8号(新世界商场向东150米)新景家园",
				"approveStatus": 0,
				"box": 1,
				"commentCount": 0,
				"created": "2017-03-23 13:22:26",
				"deleted": 0,
				"deposit": 6500,
				"description": "租期价格参见图片价目表",
				"favor": false,
				"favors": 1,
				"id": 2904,
				"images": [
					{
						"created": 1490247786000,
						"height": 500,
						"id": 6386,
						"origin": "/store/origin/2017/0323/23134305ari6.jpg",
						"preview": "/store/thumbs/2017/0323/23134305mr3f.jpg",
						"targetId": 2904,
						"width": 500
					}, {
						"created": 1490247786000,
						"height": 333,
						"id": 6387,
						"origin": "/store/origin/2017/0323/23134305uef1.jpg",
						"preview": "/store/thumbs/2017/0323/23134305q5kx.jpg",
						"targetId": 2904,
						"width": 500
					}, {
						"created": 1490247786000,
						"height": 395,
						"id": 6388,
						"origin": "/store/origin/2017/0323/23134305upe7.jpg",
						"preview": "/store/thumbs/2017/0323/23134305saw4.jpg",
						"targetId": 2904,
						"width": 500
					}, {
						"created": 1490247786000,
						"height": 333,
						"id": 6389,
						"origin": "/store/origin/2017/0323/23134305uz4d.jpg",
						"preview": "/store/thumbs/2017/0323/23134305qy3u.jpg",
						"targetId": 2904,
						"width": 499
					}
				],
				"keyList": [],
				"lat": 0,
				"leaseCount": 0,
				"lendMode": 1,
				"lon": 0,
				"name": "大疆 无人机 御 DJI Mavic Pro",
				"price": 180,
				"priceMode": 2,
				"quantity": 1,
				"remain": 1,
				"status": 0,
				"tags": [
					{
						"created": "2016-05-10 11:36:31",
						"grayIcon": "/store/thumbs/2016/0511/11112600ewl7.png",
						"icon": "/store/thumbs/2016/0511/11112600h3yy.png",
						"id": 3,
						"name": "休闲游戏"
					}
				],
				"user": {
					"avatar": "/store/ava/336/14/0/0.jpg?t=1490245955000",
					"avatar80": "/store/ava/336/14/0/80.jpg?t=1490245955000",
					"birthday": "1989-08-19",
					"borrowScale": 0,
					"borrowScaleAVG": 5,
					"borrowTimes": 0,
					"city": "北京市 东城区",
					"cityId": 0,
					"created": "2017-03-23 13:04:54",
					"gender": 1,
					"id": 14294,
					"invite": 0,
					"lat": 0,
					"lendScale": 0,
					"lendScaleAVG": 5,
					"lendTimes": 0,
					"lon": 0,
					"mobile": "15210001046",
					"nickname": "灵知科技",
					"platform": 0,
					"signature": "诚信经营，口碑服务，北京二环内唯一无人机租赁商",
					"status": 0,
					"studentStatus": 0,
					"updated": "2017-03-23 13:12:35",
					"zhimaDate": "2017-03-23",
					"zhimaStatus": 1
				},
				"weight": 494
			}, {
				"active": 0,
				"address": "首城国际b区\n北京市朝阳区广渠路",
				"approveStatus": 0,
				"box": 1,
				"commentCount": 0,
				"created": "2016-12-03 16:22:59",
				"deleted": 0,
				"deposit": 5000,
				"description": "魔借特惠：95折\n三天起租：200元\n续租：30/天",
				"favor": false,
				"favors": 1,
				"id": 2439,
				"images": [
					{
						"created": 1480753379000,
						"height": 433,
						"id": 4299,
						"origin": "/store/origin/2016/1203/03162258m08z.jpg",
						"preview": "/store/thumbs/2016/1203/03162258fjfc.jpg",
						"targetId": 2439,
						"width": 636
					}
				],
				"keyList": [],
				"lat": 39.8971,
				"leaseCount": 0,
				"lendMode": 2,
				"lon": 116.476,
				"name": "宾得K3机身",
				"price": 30,
				"priceMode": 2,
				"quantity": 1,
				"remain": 1,
				"status": 0,
				"tags": [
					{
						"created": "2016-05-10 11:37:23",
						"grayIcon": "/store/thumbs/2016/0511/111124215k4v.png",
						"icon": "/store/thumbs/2016/0511/11112421lugt.png",
						"id": 9,
						"name": "电子数码"
					}
				],
				"user": {
					"avatar": "/store/ava/944/0/0/0.jpg?t=1481209270000",
					"avatar80": "/store/ava/944/0/0/80.jpg?t=1481209270000",
					"birthday": "2013-10-20",
					"borrowScale": 55,
					"borrowScaleAVG": 5,
					"borrowTimes": 11,
					"city": "",
					"cityId": 0,
					"created": "2016-08-01 14:40:34",
					"gender": 1,
					"id": 944,
					"invite": 0,
					"lat": 0,
					"lendScale": 0,
					"lendScaleAVG": 5,
					"lendTimes": 0,
					"lon": 0,
					"mobile": "17051014949",
					"nickname": "一拍机合",
					"platform": 0,
					"signature": "行者无疆",
					"status": 0,
					"studentStatus": 0,
					"updated": "2016-12-08 23:01:10",
					"zhimaDate": "2016-12-08",
					"zhimaStatus": 1
				},
				"weight": 493
			}
		],
		"first": true,
		"last": false,
		"number": 0,
		"numberOfElements": 10,
		"size": 10,
		"totalElements": 1466,
		"totalPages": 147
	},
	"message": "操作成功"
}